ID,Type,SKU,Name,Published,"Is featured?","Visibility in catalog","Short description",Description,"Date sale price starts","Date sale price ends","Tax status","Tax class","In stock?",Stock,"Low stock amount","Backorders allowed?","Sold individually?","Weight (kg)","Length (cm)","Width (cm)","Height (cm)","Allow customer reviews?","Purchase note","Sale price","Regular price",Categories,Tags,"Shipping class",Images,"Download limit","Download expiry days",Parent,"Grouped products",Upsells,Cross-sells,"External URL","Button text",Position,"Attribute 1 name","Attribute 1 value(s)","Attribute 1 visible","Attribute 1 global","Attribute 1 default","Attribute 2 name","Attribute 2 value(s)","Attribute 2 visible","Attribute 2 global","Attribute 2 default","Attribute 3 name","Attribute 3 value(s)","Attribute 3 visible","Attribute 3 global","Attribute 3 default"
,variable,cute-turkey-fall-thanksgiving,"Cute Turkey Fall Thanksgiving Shirt, Funny Thanksgiving T-Shirt, Turkey Face Shirt, Little Turkey Shirt, Family Matching Thanksgiving Shirt",1,0,visible,,"This is content",,,taxable,,1,1000,,0,0,,,,,1,,,100,Men>T-Shirts,"shirt,t-shirt",,"https://i.etsystatic.com/25056868/r/il/2b83f2/4122419455/il_fullxfull.4122419455_akgz.jpg,https://i.etsystatic.com/25056868/r/il/685efc/3427228720/il_fullxfull.3427228720_18xr.jpg,https://i.etsystatic.com/25056868/r/il/8c3d2f/3474902013/il_fullxfull.3474902013_p6h7.jpg,https://i.etsystatic.com/25056868/r/il/785f6c/3474902017/il_fullxfull.3474902017_2s9b.jpg,https://i.etsystatic.com/25056868/r/il/1a81ce/3427228712/il_fullxfull.3427228712_llo0.jpg,https://i.etsystatic.com/25056868/r/il/3d535d/3427228716/il_fullxfull.3427228716_c8rr.jpg",,,,,,,,,0,Gender,"Men,Women",0,1,Men,Size,"S,M,L,XL,2XL,3XL",0,1,S,,,,,
,variation,cute-turkey-fall-thanksgiving-men-s,"Cute Turkey Fall Thanksgiving Shirt, Funny Thanksgiving T-Shirt, Turkey Face Shirt, Little Turkey Shirt, Family Matching Thanksgiving Shirt",1,0,visible,,,,,taxable,parent,1,1000,,,0,,,,,1,,,100,,"shirt,t-shirt",,,,,cute-turkey-fall-thanksgiving,,,,,,1,Gender,Men,,1,,Size,S,0,1,
,variation,cute-turkey-fall-thanksgiving-women-s,"Cute Turkey Fall Thanksgiving Shirt, Funny Thanksgiving T-Shirt, Turkey Face Shirt, Little Turkey Shirt, Family Matching Thanksgiving Shirt",1,0,visible,,,,,taxable,parent,1,1000,,,0,,,,,1,,,100,,"shirt,t-shirt",,,,,cute-turkey-fall-thanksgiving,,,,,,1,Gender,Women,,1,,Size,S,0,1,
,variation,cute-turkey-fall-thanksgiving-men-m,"Cute Turkey Fall Thanksgiving Shirt, Funny Thanksgiving T-Shirt, Turkey Face Shirt, Little Turkey Shirt, Family Matching Thanksgiving Shirt",1,0,visible,,,,,taxable,parent,1,1000,,,0,,,,,1,,,100,,"shirt,t-shirt",,,,,cute-turkey-fall-thanksgiving,,,,,,1,Gender,Men,,1,,Size,M,0,1,
,variation,cute-turkey-fall-thanksgiving-women-m,"Cute Turkey Fall Thanksgiving Shirt, Funny Thanksgiving T-Shirt, Turkey Face Shirt, Little Turkey Shirt, Family Matching Thanksgiving Shirt",1,0,visible,,,,,taxable,parent,1,1000,,,0,,,,,1,,,100,,"shirt,t-shirt",,,,,cute-turkey-fall-thanksgiving,,,,,,1,Gender,Women,,1,,Size,M,0,1,
,variation,cute-turkey-fall-thanksgiving-men-l,"Cute Turkey Fall Thanksgiving Shirt, Funny Thanksgiving T-Shirt, Turkey Face Shirt, Little Turkey Shirt, Family Matching Thanksgiving Shirt",1,0,visible,,,,,taxable,parent,1,1000,,,0,,,,,1,,,100,,"shirt,t-shirt",,,,,cute-turkey-fall-thanksgiving,,,,,,1,Gender,Men,,1,,Size,L,0,1,
,variation,cute-turkey-fall-thanksgiving-women-l,"Cute Turkey Fall Thanksgiving Shirt, Funny Thanksgiving T-Shirt, Turkey Face Shirt, Little Turkey Shirt, Family Matching Thanksgiving Shirt",1,0,visible,,,,,taxable,parent,1,1000,,,0,,,,,1,,,100,,"shirt,t-shirt",,,,,cute-turkey-fall-thanksgiving,,,,,,1,Gender,Women,,1,,Size,L,0,1,
,variation,cute-turkey-fall-thanksgiving-men-xl,"Cute Turkey Fall Thanksgiving Shirt, Funny Thanksgiving T-Shirt, Turkey Face Shirt, Little Turkey Shirt, Family Matching Thanksgiving Shirt",1,0,visible,,,,,taxable,parent,1,1000,,,0,,,,,1,,,100,,"shirt,t-shirt",,,,,cute-turkey-fall-thanksgiving,,,,,,1,Gender,Men,,1,,Size,XL,0,1,
,variation,cute-turkey-fall-thanksgiving-men-2xl,"Cute Turkey Fall Thanksgiving Shirt, Funny Thanksgiving T-Shirt, Turkey Face Shirt, Little Turkey Shirt, Family Matching Thanksgiving Shirt",1,0,visible,,,,,taxable,parent,1,1000,,,0,,,,,1,,,100,,"shirt,t-shirt",,,,,cute-turkey-fall-thanksgiving,,,,,,1,Gender,Men,,1,,Size,2XL,0,1,
,variation,cute-turkey-fall-thanksgiving-men-3xl,"Cute Turkey Fall Thanksgiving Shirt, Funny Thanksgiving T-Shirt, Turkey Face Shirt, Little Turkey Shirt, Family Matching Thanksgiving Shirt",1,0,visible,,,,,taxable,parent,1,1000,,,0,,,,,1,,,100,,"shirt,t-shirt",,,,,cute-turkey-fall-thanksgiving,,,,,,1,Gender,Men,,1,,Size,3XL,0,1,
,variable,turkey-face-shirts-funny,"Turkey Face Shirts, Funny Thanksgiving T-Shirt, Cute Turkey Fall Thanksgiving Shirt, Little Turkey Shirt, Family Matching Thanksgiving Shirt",1,0,visible,,"This is content",,,taxable,,1,1000,,0,0,,,,,1,,,100,Men>T-Shirts,"shirt,t-shirt",,"https://i.etsystatic.com/25056868/r/il/813fdf/4108969675/il_fullxfull.4108969675_oa1w.jpg,https://i.etsystatic.com/25056868/r/il/f35858/3427490604/il_fullxfull.3427490604_9kxa.jpg,https://i.etsystatic.com/25056868/r/il/b7ccca/3475164421/il_fullxfull.3475164421_syt5.jpg,https://i.etsystatic.com/25056868/r/il/6fb8e8/3427490598/il_fullxfull.3427490598_2f7u.jpg,https://i.etsystatic.com/25056868/r/il/1314bc/3475164415/il_fullxfull.3475164415_p876.jpg,https://i.etsystatic.com/25056868/r/il/6df736/3475164417/il_fullxfull.3475164417_cubj.jpg",,,,,,,,,0,Gender,"Men,Women",0,1,Men,Size,"S,M,L,XL,2XL,3XL",0,1,S,,,,,
,variation,turkey-face-shirts-funny-men-s,"Turkey Face Shirts, Funny Thanksgiving T-Shirt, Cute Turkey Fall Thanksgiving Shirt, Little Turkey Shirt, Family Matching Thanksgiving Shirt",1,0,visible,,,,,taxable,parent,1,1000,,,0,,,,,1,,,100,,"shirt,t-shirt",,,,,turkey-face-shirts-funny,,,,,,1,Gender,Men,,1,,Size,S,0,1,
,variation,turkey-face-shirts-funny-women-s,"Turkey Face Shirts, Funny Thanksgiving T-Shirt, Cute Turkey Fall Thanksgiving Shirt, Little Turkey Shirt, Family Matching Thanksgiving Shirt",1,0,visible,,,,,taxable,parent,1,1000,,,0,,,,,1,,,100,,"shirt,t-shirt",,,,,turkey-face-shirts-funny,,,,,,1,Gender,Women,,1,,Size,S,0,1,
,variation,turkey-face-shirts-funny-men-m,"Turkey Face Shirts, Funny Thanksgiving T-Shirt, Cute Turkey Fall Thanksgiving Shirt, Little Turkey Shirt, Family Matching Thanksgiving Shirt",1,0,visible,,,,,taxable,parent,1,1000,,,0,,,,,1,,,100,,"shirt,t-shirt",,,,,turkey-face-shirts-funny,,,,,,1,Gender,Men,,1,,Size,M,0,1,
,variation,turkey-face-shirts-funny-women-m,"Turkey Face Shirts, Funny Thanksgiving T-Shirt, Cute Turkey Fall Thanksgiving Shirt, Little Turkey Shirt, Family Matching Thanksgiving Shirt",1,0,visible,,,,,taxable,parent,1,1000,,,0,,,,,1,,,100,,"shirt,t-shirt",,,,,turkey-face-shirts-funny,,,,,,1,Gender,Women,,1,,Size,M,0,1,
,variation,turkey-face-shirts-funny-men-l,"Turkey Face Shirts, Funny Thanksgiving T-Shirt, Cute Turkey Fall Thanksgiving Shirt, Little Turkey Shirt, Family Matching Thanksgiving Shirt",1,0,visible,,,,,taxable,parent,1,1000,,,0,,,,,1,,,100,,"shirt,t-shirt",,,,,turkey-face-shirts-funny,,,,,,1,Gender,Men,,1,,Size,L,0,1,
,variation,turkey-face-shirts-funny-women-l,"Turkey Face Shirts, Funny Thanksgiving T-Shirt, Cute Turkey Fall Thanksgiving Shirt, Little Turkey Shirt, Family Matching Thanksgiving Shirt",1,0,visible,,,,,taxable,parent,1,1000,,,0,,,,,1,,,100,,"shirt,t-shirt",,,,,turkey-face-shirts-funny,,,,,,1,Gender,Women,,1,,Size,L,0,1,
,variation,turkey-face-shirts-funny-men-xl,"Turkey Face Shirts, Funny Thanksgiving T-Shirt, Cute Turkey Fall Thanksgiving Shirt, Little Turkey Shirt, Family Matching Thanksgiving Shirt",1,0,visible,,,,,taxable,parent,1,1000,,,0,,,,,1,,,100,,"shirt,t-shirt",,,,,turkey-face-shirts-funny,,,,,,1,Gender,Men,,1,,Size,XL,0,1,
,variation,turkey-face-shirts-funny-men-2xl,"Turkey Face Shirts, Funny Thanksgiving T-Shirt, Cute Turkey Fall Thanksgiving Shirt, Little Turkey Shirt, Family Matching Thanksgiving Shirt",1,0,visible,,,,,taxable,parent,1,1000,,,0,,,,,1,,,100,,"shirt,t-shirt",,,,,turkey-face-shirts-funny,,,,,,1,Gender,Men,,1,,Size,2XL,0,1,
,variation,turkey-face-shirts-funny-men-3xl,"Turkey Face Shirts, Funny Thanksgiving T-Shirt, Cute Turkey Fall Thanksgiving Shirt, Little Turkey Shirt, Family Matching Thanksgiving Shirt",1,0,visible,,,,,taxable,parent,1,1000,,,0,,,,,1,,,100,,"shirt,t-shirt",,,,,turkey-face-shirts-funny,,,,,,1,Gender,Men,,1,,Size,3XL,0,1,
,variable,fall-shirt-thanksgiving-shirt,"Fall Shirt, Thanksgiving Shirt, Halloween Shirt, Football Shirt, Pumpkin Shirt, Fall Leaves, Pumpkin Spice Shirt, Fall Clothing, Fall Season",1,0,visible,,"This is content",,,taxable,,1,1000,,0,0,,,,,1,,,100,Men>T-Shirts,"shirt,t-shirt",,"https://i.etsystatic.com/25056868/r/il/f03b75/4311772416/il_fullxfull.4311772416_6ajc.jpg,https://i.etsystatic.com/25056868/r/il/fa870e/4114353842/il_fullxfull.4114353842_ev99.jpg,https://i.etsystatic.com/25056868/r/il/670ed6/4115560880/il_fullxfull.4115560880_87w8.jpg,https://i.etsystatic.com/25056868/r/il/5ca279/4111009986/il_fullxfull.4111009986_td3b.jpg,https://i.etsystatic.com/25056868/r/il/424939/4111010086/il_fullxfull.4111010086_bb59.jpg,https://i.etsystatic.com/25056868/r/il/6ed2be/4111010118/il_fullxfull.4111010118_d9gv.jpg",,,,,,,,,0,Gender,"Men,Women",0,1,Men,Size,"S,M,L,XL,2XL,3XL",0,1,S,,,,,
,variation,fall-shirt-thanksgiving-shirt-men-s,"Fall Shirt, Thanksgiving Shirt, Halloween Shirt, Football Shirt, Pumpkin Shirt, Fall Leaves, Pumpkin Spice Shirt, Fall Clothing, Fall Season",1,0,visible,,,,,taxable,parent,1,1000,,,0,,,,,1,,,100,,"shirt,t-shirt",,,,,fall-shirt-thanksgiving-shirt,,,,,,1,Gender,Men,,1,,Size,S,0,1,
,variation,fall-shirt-thanksgiving-shirt-women-s,"Fall Shirt, Thanksgiving Shirt, Halloween Shirt, Football Shirt, Pumpkin Shirt, Fall Leaves, Pumpkin Spice Shirt, Fall Clothing, Fall Season",1,0,visible,,,,,taxable,parent,1,1000,,,0,,,,,1,,,100,,"shirt,t-shirt",,,,,fall-shirt-thanksgiving-shirt,,,,,,1,Gender,Women,,1,,Size,S,0,1,
,variation,fall-shirt-thanksgiving-shirt-men-m,"Fall Shirt, Thanksgiving Shirt, Halloween Shirt, Football Shirt, Pumpkin Shirt, Fall Leaves, Pumpkin Spice Shirt, Fall Clothing, Fall Season",1,0,visible,,,,,taxable,parent,1,1000,,,0,,,,,1,,,100,,"shirt,t-shirt",,,,,fall-shirt-thanksgiving-shirt,,,,,,1,Gender,Men,,1,,Size,M,0,1,
,variation,fall-shirt-thanksgiving-shirt-women-m,"Fall Shirt, Thanksgiving Shirt, Halloween Shirt, Football Shirt, Pumpkin Shirt, Fall Leaves, Pumpkin Spice Shirt, Fall Clothing, Fall Season",1,0,visible,,,,,taxable,parent,1,1000,,,0,,,,,1,,,100,,"shirt,t-shirt",,,,,fall-shirt-thanksgiving-shirt,,,,,,1,Gender,Women,,1,,Size,M,0,1,
,variation,fall-shirt-thanksgiving-shirt-men-l,"Fall Shirt, Thanksgiving Shirt, Halloween Shirt, Football Shirt, Pumpkin Shirt, Fall Leaves, Pumpkin Spice Shirt, Fall Clothing, Fall Season",1,0,visible,,,,,taxable,parent,1,1000,,,0,,,,,1,,,100,,"shirt,t-shirt",,,,,fall-shirt-thanksgiving-shirt,,,,,,1,Gender,Men,,1,,Size,L,0,1,
,variation,fall-shirt-thanksgiving-shirt-women-l,"Fall Shirt, Thanksgiving Shirt, Halloween Shirt, Football Shirt, Pumpkin Shirt, Fall Leaves, Pumpkin Spice Shirt, Fall Clothing, Fall Season",1,0,visible,,,,,taxable,parent,1,1000,,,0,,,,,1,,,100,,"shirt,t-shirt",,,,,fall-shirt-thanksgiving-shirt,,,,,,1,Gender,Women,,1,,Size,L,0,1,
,variation,fall-shirt-thanksgiving-shirt-men-xl,"Fall Shirt, Thanksgiving Shirt, Halloween Shirt, Football Shirt, Pumpkin Shirt, Fall Leaves, Pumpkin Spice Shirt, Fall Clothing, Fall Season",1,0,visible,,,,,taxable,parent,1,1000,,,0,,,,,1,,,100,,"shirt,t-shirt",,,,,fall-shirt-thanksgiving-shirt,,,,,,1,Gender,Men,,1,,Size,XL,0,1,
,variation,fall-shirt-thanksgiving-shirt-men-2xl,"Fall Shirt, Thanksgiving Shirt, Halloween Shirt, Football Shirt, Pumpkin Shirt, Fall Leaves, Pumpkin Spice Shirt, Fall Clothing, Fall Season",1,0,visible,,,,,taxable,parent,1,1000,,,0,,,,,1,,,100,,"shirt,t-shirt",,,,,fall-shirt-thanksgiving-shirt,,,,,,1,Gender,Men,,1,,Size,2XL,0,1,
,variation,fall-shirt-thanksgiving-shirt-men-3xl,"Fall Shirt, Thanksgiving Shirt, Halloween Shirt, Football Shirt, Pumpkin Shirt, Fall Leaves, Pumpkin Spice Shirt, Fall Clothing, Fall Season",1,0,visible,,,,,taxable,parent,1,1000,,,0,,,,,1,,,100,,"shirt,t-shirt",,,,,fall-shirt-thanksgiving-shirt,,,,,,1,Gender,Men,,1,,Size,3XL,0,1,
,variable,gobble-till-you-wobble,"Gobble Till You Wobble Shirt, Thanksgiving Shirt, Turkey Day Shirt, Thanksgiving Gift, Fall Shirt, Family Thanksgiving Shirt, Turkey Tee",1,0,visible,,"This is content",,,taxable,,1,1000,,0,0,,,,,1,,,100,Men>T-Shirts,"shirt,t-shirt",,"https://i.etsystatic.com/25056868/r/il/9c78f3/4109896906/il_fullxfull.4109896906_kpln.jpg,https://i.etsystatic.com/25056868/r/il/d70f70/2633321442/il_fullxfull.2633321442_b7z1.jpg,https://i.etsystatic.com/25056868/r/il/ce9406/2680979339/il_fullxfull.2680979339_d5sd.jpg,https://i.etsystatic.com/25056868/r/il/be1d34/2633321438/il_fullxfull.2633321438_rbgf.jpg,https://i.etsystatic.com/25056868/r/il/10f1d2/2633321450/il_fullxfull.2633321450_4gtw.jpg,https://i.etsystatic.com/25056868/r/il/f70ab6/2680979351/il_fullxfull.2680979351_odli.jpg",,,,,,,,,0,Gender,"Men,Women",0,1,Men,Size,"S,M,L,XL,2XL,3XL",0,1,S,,,,,
,variation,gobble-till-you-wobble-men-s,"Gobble Till You Wobble Shirt, Thanksgiving Shirt, Turkey Day Shirt, Thanksgiving Gift, Fall Shirt, Family Thanksgiving Shirt, Turkey Tee",1,0,visible,,,,,taxable,parent,1,1000,,,0,,,,,1,,,100,,"shirt,t-shirt",,,,,gobble-till-you-wobble,,,,,,1,Gender,Men,,1,,Size,S,0,1,
,variation,gobble-till-you-wobble-women-s,"Gobble Till You Wobble Shirt, Thanksgiving Shirt, Turkey Day Shirt, Thanksgiving Gift, Fall Shirt, Family Thanksgiving Shirt, Turkey Tee",1,0,visible,,,,,taxable,parent,1,1000,,,0,,,,,1,,,100,,"shirt,t-shirt",,,,,gobble-till-you-wobble,,,,,,1,Gender,Women,,1,,Size,S,0,1,
,variation,gobble-till-you-wobble-men-m,"Gobble Till You Wobble Shirt, Thanksgiving Shirt, Turkey Day Shirt, Thanksgiving Gift, Fall Shirt, Family Thanksgiving Shirt, Turkey Tee",1,0,visible,,,,,taxable,parent,1,1000,,,0,,,,,1,,,100,,"shirt,t-shirt",,,,,gobble-till-you-wobble,,,,,,1,Gender,Men,,1,,Size,M,0,1,
,variation,gobble-till-you-wobble-women-m,"Gobble Till You Wobble Shirt, Thanksgiving Shirt, Turkey Day Shirt, Thanksgiving Gift, Fall Shirt, Family Thanksgiving Shirt, Turkey Tee",1,0,visible,,,,,taxable,parent,1,1000,,,0,,,,,1,,,100,,"shirt,t-shirt",,,,,gobble-till-you-wobble,,,,,,1,Gender,Women,,1,,Size,M,0,1,
,variation,gobble-till-you-wobble-men-l,"Gobble Till You Wobble Shirt, Thanksgiving Shirt, Turkey Day Shirt, Thanksgiving Gift, Fall Shirt, Family Thanksgiving Shirt, Turkey Tee",1,0,visible,,,,,taxable,parent,1,1000,,,0,,,,,1,,,100,,"shirt,t-shirt",,,,,gobble-till-you-wobble,,,,,,1,Gender,Men,,1,,Size,L,0,1,
,variation,gobble-till-you-wobble-women-l,"Gobble Till You Wobble Shirt, Thanksgiving Shirt, Turkey Day Shirt, Thanksgiving Gift, Fall Shirt, Family Thanksgiving Shirt, Turkey Tee",1,0,visible,,,,,taxable,parent,1,1000,,,0,,,,,1,,,100,,"shirt,t-shirt",,,,,gobble-till-you-wobble,,,,,,1,Gender,Women,,1,,Size,L,0,1,
,variation,gobble-till-you-wobble-men-xl,"Gobble Till You Wobble Shirt, Thanksgiving Shirt, Turkey Day Shirt, Thanksgiving Gift, Fall Shirt, Family Thanksgiving Shirt, Turkey Tee",1,0,visible,,,,,taxable,parent,1,1000,,,0,,,,,1,,,100,,"shirt,t-shirt",,,,,gobble-till-you-wobble,,,,,,1,Gender,Men,,1,,Size,XL,0,1,
,variation,gobble-till-you-wobble-men-2xl,"Gobble Till You Wobble Shirt, Thanksgiving Shirt, Turkey Day Shirt, Thanksgiving Gift, Fall Shirt, Family Thanksgiving Shirt, Turkey Tee",1,0,visible,,,,,taxable,parent,1,1000,,,0,,,,,1,,,100,,"shirt,t-shirt",,,,,gobble-till-you-wobble,,,,,,1,Gender,Men,,1,,Size,2XL,0,1,
,variation,gobble-till-you-wobble-men-3xl,"Gobble Till You Wobble Shirt, Thanksgiving Shirt, Turkey Day Shirt, Thanksgiving Gift, Fall Shirt, Family Thanksgiving Shirt, Turkey Tee",1,0,visible,,,,,taxable,parent,1,1000,,,0,,,,,1,,,100,,"shirt,t-shirt",,,,,gobble-till-you-wobble,,,,,,1,Gender,Men,,1,,Size,3XL,0,1,
,variable,kids-thanksgiving-shirts-funny,"Kids Thanksgiving Shirts, Funny Thanksgiving Turkey Shirt, Boys Turkey Shirt, Coolest Turkey in Town T-Shirt, Happy Thanksgiving Shirts",1,0,visible,,"This is content",,,taxable,,1,1000,,0,0,,,,,1,,,100,Men>T-Shirts,"shirt,t-shirt",,"https://i.etsystatic.com/25056868/r/il/1f8eea/4197576387/il_fullxfull.4197576387_aotv.jpg,https://i.etsystatic.com/25056868/r/il/a8bca2/4146429094/il_fullxfull.4146429094_te9m.jpg,https://i.etsystatic.com/25056868/r/il/27f720/4146429124/il_fullxfull.4146429124_7iwj.jpg,https://i.etsystatic.com/25056868/r/il/3b8446/4194089123/il_fullxfull.4194089123_fg7k.jpg,https://i.etsystatic.com/25056868/r/il/a4e761/4194089161/il_fullxfull.4194089161_pqi6.jpg,https://i.etsystatic.com/25056868/r/il/735803/4146429200/il_fullxfull.4146429200_t6kw.jpg",,,,,,,,,0,Gender,"Men,Women",0,1,Men,Size,"S,M,L,XL,2XL,3XL",0,1,S,,,,,
,variation,kids-thanksgiving-shirts-funny-men-s,"Kids Thanksgiving Shirts, Funny Thanksgiving Turkey Shirt, Boys Turkey Shirt, Coolest Turkey in Town T-Shirt, Happy Thanksgiving Shirts",1,0,visible,,,,,taxable,parent,1,1000,,,0,,,,,1,,,100,,"shirt,t-shirt",,,,,kids-thanksgiving-shirts-funny,,,,,,1,Gender,Men,,1,,Size,S,0,1,
,variation,kids-thanksgiving-shirts-funny-women-s,"Kids Thanksgiving Shirts, Funny Thanksgiving Turkey Shirt, Boys Turkey Shirt, Coolest Turkey in Town T-Shirt, Happy Thanksgiving Shirts",1,0,visible,,,,,taxable,parent,1,1000,,,0,,,,,1,,,100,,"shirt,t-shirt",,,,,kids-thanksgiving-shirts-funny,,,,,,1,Gender,Women,,1,,Size,S,0,1,
,variation,kids-thanksgiving-shirts-funny-men-m,"Kids Thanksgiving Shirts, Funny Thanksgiving Turkey Shirt, Boys Turkey Shirt, Coolest Turkey in Town T-Shirt, Happy Thanksgiving Shirts",1,0,visible,,,,,taxable,parent,1,1000,,,0,,,,,1,,,100,,"shirt,t-shirt",,,,,kids-thanksgiving-shirts-funny,,,,,,1,Gender,Men,,1,,Size,M,0,1,
,variation,kids-thanksgiving-shirts-funny-women-m,"Kids Thanksgiving Shirts, Funny Thanksgiving Turkey Shirt, Boys Turkey Shirt, Coolest Turkey in Town T-Shirt, Happy Thanksgiving Shirts",1,0,visible,,,,,taxable,parent,1,1000,,,0,,,,,1,,,100,,"shirt,t-shirt",,,,,kids-thanksgiving-shirts-funny,,,,,,1,Gender,Women,,1,,Size,M,0,1,
,variation,kids-thanksgiving-shirts-funny-men-l,"Kids Thanksgiving Shirts, Funny Thanksgiving Turkey Shirt, Boys Turkey Shirt, Coolest Turkey in Town T-Shirt, Happy Thanksgiving Shirts",1,0,visible,,,,,taxable,parent,1,1000,,,0,,,,,1,,,100,,"shirt,t-shirt",,,,,kids-thanksgiving-shirts-funny,,,,,,1,Gender,Men,,1,,Size,L,0,1,
,variation,kids-thanksgiving-shirts-funny-women-l,"Kids Thanksgiving Shirts, Funny Thanksgiving Turkey Shirt, Boys Turkey Shirt, Coolest Turkey in Town T-Shirt, Happy Thanksgiving Shirts",1,0,visible,,,,,taxable,parent,1,1000,,,0,,,,,1,,,100,,"shirt,t-shirt",,,,,kids-thanksgiving-shirts-funny,,,,,,1,Gender,Women,,1,,Size,L,0,1,
,variation,kids-thanksgiving-shirts-funny-men-xl,"Kids Thanksgiving Shirts, Funny Thanksgiving Turkey Shirt, Boys Turkey Shirt, Coolest Turkey in Town T-Shirt, Happy Thanksgiving Shirts",1,0,visible,,,,,taxable,parent,1,1000,,,0,,,,,1,,,100,,"shirt,t-shirt",,,,,kids-thanksgiving-shirts-funny,,,,,,1,Gender,Men,,1,,Size,XL,0,1,
,variation,kids-thanksgiving-shirts-funny-men-2xl,"Kids Thanksgiving Shirts, Funny Thanksgiving Turkey Shirt, Boys Turkey Shirt, Coolest Turkey in Town T-Shirt, Happy Thanksgiving Shirts",1,0,visible,,,,,taxable,parent,1,1000,,,0,,,,,1,,,100,,"shirt,t-shirt",,,,,kids-thanksgiving-shirts-funny,,,,,,1,Gender,Men,,1,,Size,2XL,0,1,
,variation,kids-thanksgiving-shirts-funny-men-3xl,"Kids Thanksgiving Shirts, Funny Thanksgiving Turkey Shirt, Boys Turkey Shirt, Coolest Turkey in Town T-Shirt, Happy Thanksgiving Shirts",1,0,visible,,,,,taxable,parent,1,1000,,,0,,,,,1,,,100,,"shirt,t-shirt",,,,,kids-thanksgiving-shirts-funny,,,,,,1,Gender,Men,,1,,Size,3XL,0,1,
,variable,fall-shirts-thanksgiving-t,"Fall Shirts, Thanksgiving T Shirt, Fall Vibes, Autumn Shirt, Fall Clothing, Shirts For Women, Boho Shirt, Leopard Print Shirt, Fall Gift",1,0,visible,,"This is content",,,taxable,,1,1000,,0,0,,,,,1,,,100,Men>T-Shirts,"shirt,t-shirt",,"https://i.etsystatic.com/25056868/r/il/fb10e7/4104370250/il_fullxfull.4104370250_99kw.jpg,https://i.etsystatic.com/25056868/r/il/35eaa0/4150356305/il_fullxfull.4150356305_qw3o.jpg,https://i.etsystatic.com/25056868/r/il/bc33fd/3774605688/il_fullxfull.3774605688_sqjc.jpg,https://i.etsystatic.com/25056868/r/il/24b95e/3278339003/il_fullxfull.3278339003_34ms.jpg,https://i.etsystatic.com/25056868/r/il/4171b4/4102701558/il_fullxfull.4102701558_pbak.jpg,https://i.etsystatic.com/25056868/r/il/9c265e/4102701594/il_fullxfull.4102701594_lzey.jpg",,,,,,,,,0,Gender,"Men,Women",0,1,Men,Size,"S,M,L,XL,2XL,3XL",0,1,S,,,,,
,variation,fall-shirts-thanksgiving-t-men-s,"Fall Shirts, Thanksgiving T Shirt, Fall Vibes, Autumn Shirt, Fall Clothing, Shirts For Women, Boho Shirt, Leopard Print Shirt, Fall Gift",1,0,visible,,,,,taxable,parent,1,1000,,,0,,,,,1,,,100,,"shirt,t-shirt",,,,,fall-shirts-thanksgiving-t,,,,,,1,Gender,Men,,1,,Size,S,0,1,
,variation,fall-shirts-thanksgiving-t-women-s,"Fall Shirts, Thanksgiving T Shirt, Fall Vibes, Autumn Shirt, Fall Clothing, Shirts For Women, Boho Shirt, Leopard Print Shirt, Fall Gift",1,0,visible,,,,,taxable,parent,1,1000,,,0,,,,,1,,,100,,"shirt,t-shirt",,,,,fall-shirts-thanksgiving-t,,,,,,1,Gender,Women,,1,,Size,S,0,1,
,variation,fall-shirts-thanksgiving-t-men-m,"Fall Shirts, Thanksgiving T Shirt, Fall Vibes, Autumn Shirt, Fall Clothing, Shirts For Women, Boho Shirt, Leopard Print Shirt, Fall Gift",1,0,visible,,,,,taxable,parent,1,1000,,,0,,,,,1,,,100,,"shirt,t-shirt",,,,,fall-shirts-thanksgiving-t,,,,,,1,Gender,Men,,1,,Size,M,0,1,
,variation,fall-shirts-thanksgiving-t-women-m,"Fall Shirts, Thanksgiving T Shirt, Fall Vibes, Autumn Shirt, Fall Clothing, Shirts For Women, Boho Shirt, Leopard Print Shirt, Fall Gift",1,0,visible,,,,,taxable,parent,1,1000,,,0,,,,,1,,,100,,"shirt,t-shirt",,,,,fall-shirts-thanksgiving-t,,,,,,1,Gender,Women,,1,,Size,M,0,1,
,variation,fall-shirts-thanksgiving-t-men-l,"Fall Shirts, Thanksgiving T Shirt, Fall Vibes, Autumn Shirt, Fall Clothing, Shirts For Women, Boho Shirt, Leopard Print Shirt, Fall Gift",1,0,visible,,,,,taxable,parent,1,1000,,,0,,,,,1,,,100,,"shirt,t-shirt",,,,,fall-shirts-thanksgiving-t,,,,,,1,Gender,Men,,1,,Size,L,0,1,
,variation,fall-shirts-thanksgiving-t-women-l,"Fall Shirts, Thanksgiving T Shirt, Fall Vibes, Autumn Shirt, Fall Clothing, Shirts For Women, Boho Shirt, Leopard Print Shirt, Fall Gift",1,0,visible,,,,,taxable,parent,1,1000,,,0,,,,,1,,,100,,"shirt,t-shirt",,,,,fall-shirts-thanksgiving-t,,,,,,1,Gender,Women,,1,,Size,L,0,1,
,variation,fall-shirts-thanksgiving-t-men-xl,"Fall Shirts, Thanksgiving T Shirt, Fall Vibes, Autumn Shirt, Fall Clothing, Shirts For Women, Boho Shirt, Leopard Print Shirt, Fall Gift",1,0,visible,,,,,taxable,parent,1,1000,,,0,,,,,1,,,100,,"shirt,t-shirt",,,,,fall-shirts-thanksgiving-t,,,,,,1,Gender,Men,,1,,Size,XL,0,1,
,variation,fall-shirts-thanksgiving-t-men-2xl,"Fall Shirts, Thanksgiving T Shirt, Fall Vibes, Autumn Shirt, Fall Clothing, Shirts For Women, Boho Shirt, Leopard Print Shirt, Fall Gift",1,0,visible,,,,,taxable,parent,1,1000,,,0,,,,,1,,,100,,"shirt,t-shirt",,,,,fall-shirts-thanksgiving-t,,,,,,1,Gender,Men,,1,,Size,2XL,0,1,
,variation,fall-shirts-thanksgiving-t-men-3xl,"Fall Shirts, Thanksgiving T Shirt, Fall Vibes, Autumn Shirt, Fall Clothing, Shirts For Women, Boho Shirt, Leopard Print Shirt, Fall Gift",1,0,visible,,,,,taxable,parent,1,1000,,,0,,,,,1,,,100,,"shirt,t-shirt",,,,,fall-shirts-thanksgiving-t,,,,,,1,Gender,Men,,1,,Size,3XL,0,1,
,variable,cutest-turkey-in-town,"Cutest Turkey in Town Shirt, Funny Thanksgiving Tee, Thanksgiving Shirt,  Thankful Shirts For Women, Fall Thankful Shirt, Family Matching",1,0,visible,,"This is content",,,taxable,,1,1000,,0,0,,,,,1,,,100,Men>T-Shirts,"shirt,t-shirt",,"https://i.etsystatic.com/25056868/r/il/562beb/4114228763/il_fullxfull.4114228763_ijjq.jpg,https://i.etsystatic.com/25056868/r/il/462473/3474746845/il_fullxfull.3474746845_hiv4.jpg,https://i.etsystatic.com/25056868/r/il/ce1a17/3427071930/il_fullxfull.3427071930_3azz.jpg,https://i.etsystatic.com/25056868/r/il/d6e4aa/3474746851/il_fullxfull.3474746851_930u.jpg,https://i.etsystatic.com/25056868/r/il/5af303/3474746849/il_fullxfull.3474746849_madd.jpg,https://i.etsystatic.com/25056868/r/il/90b8ea/3427071926/il_fullxfull.3427071926_37q9.jpg",,,,,,,,,0,Gender,"Men,Women",0,1,Men,Size,"S,M,L,XL,2XL,3XL",0,1,S,,,,,
,variation,cutest-turkey-in-town-men-s,"Cutest Turkey in Town Shirt, Funny Thanksgiving Tee, Thanksgiving Shirt,  Thankful Shirts For Women, Fall Thankful Shirt, Family Matching",1,0,visible,,,,,taxable,parent,1,1000,,,0,,,,,1,,,100,,"shirt,t-shirt",,,,,cutest-turkey-in-town,,,,,,1,Gender,Men,,1,,Size,S,0,1,
,variation,cutest-turkey-in-town-women-s,"Cutest Turkey in Town Shirt, Funny Thanksgiving Tee, Thanksgiving Shirt,  Thankful Shirts For Women, Fall Thankful Shirt, Family Matching",1,0,visible,,,,,taxable,parent,1,1000,,,0,,,,,1,,,100,,"shirt,t-shirt",,,,,cutest-turkey-in-town,,,,,,1,Gender,Women,,1,,Size,S,0,1,
,variation,cutest-turkey-in-town-men-m,"Cutest Turkey in Town Shirt, Funny Thanksgiving Tee, Thanksgiving Shirt,  Thankful Shirts For Women, Fall Thankful Shirt, Family Matching",1,0,visible,,,,,taxable,parent,1,1000,,,0,,,,,1,,,100,,"shirt,t-shirt",,,,,cutest-turkey-in-town,,,,,,1,Gender,Men,,1,,Size,M,0,1,
,variation,cutest-turkey-in-town-women-m,"Cutest Turkey in Town Shirt, Funny Thanksgiving Tee, Thanksgiving Shirt,  Thankful Shirts For Women, Fall Thankful Shirt, Family Matching",1,0,visible,,,,,taxable,parent,1,1000,,,0,,,,,1,,,100,,"shirt,t-shirt",,,,,cutest-turkey-in-town,,,,,,1,Gender,Women,,1,,Size,M,0,1,
,variation,cutest-turkey-in-town-men-l,"Cutest Turkey in Town Shirt, Funny Thanksgiving Tee, Thanksgiving Shirt,  Thankful Shirts For Women, Fall Thankful Shirt, Family Matching",1,0,visible,,,,,taxable,parent,1,1000,,,0,,,,,1,,,100,,"shirt,t-shirt",,,,,cutest-turkey-in-town,,,,,,1,Gender,Men,,1,,Size,L,0,1,
,variation,cutest-turkey-in-town-women-l,"Cutest Turkey in Town Shirt, Funny Thanksgiving Tee, Thanksgiving Shirt,  Thankful Shirts For Women, Fall Thankful Shirt, Family Matching",1,0,visible,,,,,taxable,parent,1,1000,,,0,,,,,1,,,100,,"shirt,t-shirt",,,,,cutest-turkey-in-town,,,,,,1,Gender,Women,,1,,Size,L,0,1,
,variation,cutest-turkey-in-town-men-xl,"Cutest Turkey in Town Shirt, Funny Thanksgiving Tee, Thanksgiving Shirt,  Thankful Shirts For Women, Fall Thankful Shirt, Family Matching",1,0,visible,,,,,taxable,parent,1,1000,,,0,,,,,1,,,100,,"shirt,t-shirt",,,,,cutest-turkey-in-town,,,,,,1,Gender,Men,,1,,Size,XL,0,1,
,variation,cutest-turkey-in-town-men-2xl,"Cutest Turkey in Town Shirt, Funny Thanksgiving Tee, Thanksgiving Shirt,  Thankful Shirts For Women, Fall Thankful Shirt, Family Matching",1,0,visible,,,,,taxable,parent,1,1000,,,0,,,,,1,,,100,,"shirt,t-shirt",,,,,cutest-turkey-in-town,,,,,,1,Gender,Men,,1,,Size,2XL,0,1,
,variation,cutest-turkey-in-town-men-3xl,"Cutest Turkey in Town Shirt, Funny Thanksgiving Tee, Thanksgiving Shirt,  Thankful Shirts For Women, Fall Thankful Shirt, Family Matching",1,0,visible,,,,,taxable,parent,1,1000,,,0,,,,,1,,,100,,"shirt,t-shirt",,,,,cutest-turkey-in-town,,,,,,1,Gender,Men,,1,,Size,3XL,0,1,
,variable,thankful-mama-shirt-thanksgiving,"Thankful Mama Shirt, Thanksgiving Shirt, Mom Shirt, Leopard Shirt, Gift For Mom, Mothers Day Shirt, Thankful Mom Shirt",1,0,visible,,"This is content",,,taxable,,1,1000,,0,0,,,,,1,,,100,Men>T-Shirts,"shirt,t-shirt",,"https://i.etsystatic.com/25056868/r/il/630dda/3377221105/il_fullxfull.3377221105_4qsf.jpg,https://i.etsystatic.com/25056868/r/il/cbccf3/3329522264/il_fullxfull.3329522264_gl3w.jpg,https://i.etsystatic.com/25056868/r/il/277ad7/3329523002/il_fullxfull.3329523002_dnwh.jpg,https://i.etsystatic.com/25056868/r/il/ce9208/3377221103/il_fullxfull.3377221103_jfks.jpg,https://i.etsystatic.com/25056868/r/il/15a20d/3329523008/il_fullxfull.3329523008_osds.jpg,https://i.etsystatic.com/25056868/r/il/4ca662/3329523004/il_fullxfull.3329523004_1ogf.jpg",,,,,,,,,0,Gender,"Men,Women",0,1,Men,Size,"S,M,L,XL,2XL,3XL",0,1,S,,,,,
,variation,thankful-mama-shirt-thanksgiving-men-s,"Thankful Mama Shirt, Thanksgiving Shirt, Mom Shirt, Leopard Shirt, Gift For Mom, Mothers Day Shirt, Thankful Mom Shirt",1,0,visible,,,,,taxable,parent,1,1000,,,0,,,,,1,,,100,,"shirt,t-shirt",,,,,thankful-mama-shirt-thanksgiving,,,,,,1,Gender,Men,,1,,Size,S,0,1,
,variation,thankful-mama-shirt-thanksgiving-women-s,"Thankful Mama Shirt, Thanksgiving Shirt, Mom Shirt, Leopard Shirt, Gift For Mom, Mothers Day Shirt, Thankful Mom Shirt",1,0,visible,,,,,taxable,parent,1,1000,,,0,,,,,1,,,100,,"shirt,t-shirt",,,,,thankful-mama-shirt-thanksgiving,,,,,,1,Gender,Women,,1,,Size,S,0,1,
,variation,thankful-mama-shirt-thanksgiving-men-m,"Thankful Mama Shirt, Thanksgiving Shirt, Mom Shirt, Leopard Shirt, Gift For Mom, Mothers Day Shirt, Thankful Mom Shirt",1,0,visible,,,,,taxable,parent,1,1000,,,0,,,,,1,,,100,,"shirt,t-shirt",,,,,thankful-mama-shirt-thanksgiving,,,,,,1,Gender,Men,,1,,Size,M,0,1,
,variation,thankful-mama-shirt-thanksgiving-women-m,"Thankful Mama Shirt, Thanksgiving Shirt, Mom Shirt, Leopard Shirt, Gift For Mom, Mothers Day Shirt, Thankful Mom Shirt",1,0,visible,,,,,taxable,parent,1,1000,,,0,,,,,1,,,100,,"shirt,t-shirt",,,,,thankful-mama-shirt-thanksgiving,,,,,,1,Gender,Women,,1,,Size,M,0,1,
,variation,thankful-mama-shirt-thanksgiving-men-l,"Thankful Mama Shirt, Thanksgiving Shirt, Mom Shirt, Leopard Shirt, Gift For Mom, Mothers Day Shirt, Thankful Mom Shirt",1,0,visible,,,,,taxable,parent,1,1000,,,0,,,,,1,,,100,,"shirt,t-shirt",,,,,thankful-mama-shirt-thanksgiving,,,,,,1,Gender,Men,,1,,Size,L,0,1,
,variation,thankful-mama-shirt-thanksgiving-women-l,"Thankful Mama Shirt, Thanksgiving Shirt, Mom Shirt, Leopard Shirt, Gift For Mom, Mothers Day Shirt, Thankful Mom Shirt",1,0,visible,,,,,taxable,parent,1,1000,,,0,,,,,1,,,100,,"shirt,t-shirt",,,,,thankful-mama-shirt-thanksgiving,,,,,,1,Gender,Women,,1,,Size,L,0,1,
,variation,thankful-mama-shirt-thanksgiving-men-xl,"Thankful Mama Shirt, Thanksgiving Shirt, Mom Shirt, Leopard Shirt, Gift For Mom, Mothers Day Shirt, Thankful Mom Shirt",1,0,visible,,,,,taxable,parent,1,1000,,,0,,,,,1,,,100,,"shirt,t-shirt",,,,,thankful-mama-shirt-thanksgiving,,,,,,1,Gender,Men,,1,,Size,XL,0,1,
,variation,thankful-mama-shirt-thanksgiving-men-2xl,"Thankful Mama Shirt, Thanksgiving Shirt, Mom Shirt, Leopard Shirt, Gift For Mom, Mothers Day Shirt, Thankful Mom Shirt",1,0,visible,,,,,taxable,parent,1,1000,,,0,,,,,1,,,100,,"shirt,t-shirt",,,,,thankful-mama-shirt-thanksgiving,,,,,,1,Gender,Men,,1,,Size,2XL,0,1,
,variation,thankful-mama-shirt-thanksgiving-men-3xl,"Thankful Mama Shirt, Thanksgiving Shirt, Mom Shirt, Leopard Shirt, Gift For Mom, Mothers Day Shirt, Thankful Mom Shirt",1,0,visible,,,,,taxable,parent,1,1000,,,0,,,,,1,,,100,,"shirt,t-shirt",,,,,thankful-mama-shirt-thanksgiving,,,,,,1,Gender,Men,,1,,Size,3XL,0,1,
,variable,funny-dancing-skeletons-happy,"Funny Dancing Skeletons Happy Hallothanksmas Shirt, Fall Pumpkin Thanksigiving Halloween Party Shirts, Holiday Merry Christmas T Shirts",1,0,visible,,"This is content",,,taxable,,1,1000,,0,0,,,,,1,,,100,Men>T-Shirts,"shirt,t-shirt",,"https://i.etsystatic.com/25056868/r/il/4d59e8/5083102848/il_fullxfull.5083102848_1153.jpg,https://i.etsystatic.com/25056868/r/il/d83cb8/4315044262/il_fullxfull.4315044262_kgfu.jpg,https://i.etsystatic.com/25056868/r/il/7d0050/4284532392/il_fullxfull.4284532392_smfq.jpg,https://i.etsystatic.com/25056868/r/il/f05c8b/4331919129/il_fullxfull.4331919129_211c.jpg,https://i.etsystatic.com/25056868/r/il/a59b74/4331919055/il_fullxfull.4331919055_ryfs.jpg,https://i.etsystatic.com/25056868/r/il/4501f6/4331919231/il_fullxfull.4331919231_9fmx.jpg",,,,,,,,,0,Gender,"Men,Women",0,1,Men,Size,"S,M,L,XL,2XL,3XL",0,1,S,,,,,
,variation,funny-dancing-skeletons-happy-men-s,"Funny Dancing Skeletons Happy Hallothanksmas Shirt, Fall Pumpkin Thanksigiving Halloween Party Shirts, Holiday Merry Christmas T Shirts",1,0,visible,,,,,taxable,parent,1,1000,,,0,,,,,1,,,100,,"shirt,t-shirt",,,,,funny-dancing-skeletons-happy,,,,,,1,Gender,Men,,1,,Size,S,0,1,
,variation,funny-dancing-skeletons-happy-women-s,"Funny Dancing Skeletons Happy Hallothanksmas Shirt, Fall Pumpkin Thanksigiving Halloween Party Shirts, Holiday Merry Christmas T Shirts",1,0,visible,,,,,taxable,parent,1,1000,,,0,,,,,1,,,100,,"shirt,t-shirt",,,,,funny-dancing-skeletons-happy,,,,,,1,Gender,Women,,1,,Size,S,0,1,
,variation,funny-dancing-skeletons-happy-men-m,"Funny Dancing Skeletons Happy Hallothanksmas Shirt, Fall Pumpkin Thanksigiving Halloween Party Shirts, Holiday Merry Christmas T Shirts",1,0,visible,,,,,taxable,parent,1,1000,,,0,,,,,1,,,100,,"shirt,t-shirt",,,,,funny-dancing-skeletons-happy,,,,,,1,Gender,Men,,1,,Size,M,0,1,
,variation,funny-dancing-skeletons-happy-women-m,"Funny Dancing Skeletons Happy Hallothanksmas Shirt, Fall Pumpkin Thanksigiving Halloween Party Shirts, Holiday Merry Christmas T Shirts",1,0,visible,,,,,taxable,parent,1,1000,,,0,,,,,1,,,100,,"shirt,t-shirt",,,,,funny-dancing-skeletons-happy,,,,,,1,Gender,Women,,1,,Size,M,0,1,
,variation,funny-dancing-skeletons-happy-men-l,"Funny Dancing Skeletons Happy Hallothanksmas Shirt, Fall Pumpkin Thanksigiving Halloween Party Shirts, Holiday Merry Christmas T Shirts",1,0,visible,,,,,taxable,parent,1,1000,,,0,,,,,1,,,100,,"shirt,t-shirt",,,,,funny-dancing-skeletons-happy,,,,,,1,Gender,Men,,1,,Size,L,0,1,
,variation,funny-dancing-skeletons-happy-women-l,"Funny Dancing Skeletons Happy Hallothanksmas Shirt, Fall Pumpkin Thanksigiving Halloween Party Shirts, Holiday Merry Christmas T Shirts",1,0,visible,,,,,taxable,parent,1,1000,,,0,,,,,1,,,100,,"shirt,t-shirt",,,,,funny-dancing-skeletons-happy,,,,,,1,Gender,Women,,1,,Size,L,0,1,
,variation,funny-dancing-skeletons-happy-men-xl,"Funny Dancing Skeletons Happy Hallothanksmas Shirt, Fall Pumpkin Thanksigiving Halloween Party Shirts, Holiday Merry Christmas T Shirts",1,0,visible,,,,,taxable,parent,1,1000,,,0,,,,,1,,,100,,"shirt,t-shirt",,,,,funny-dancing-skeletons-happy,,,,,,1,Gender,Men,,1,,Size,XL,0,1,
,variation,funny-dancing-skeletons-happy-men-2xl,"Funny Dancing Skeletons Happy Hallothanksmas Shirt, Fall Pumpkin Thanksigiving Halloween Party Shirts, Holiday Merry Christmas T Shirts",1,0,visible,,,,,taxable,parent,1,1000,,,0,,,,,1,,,100,,"shirt,t-shirt",,,,,funny-dancing-skeletons-happy,,,,,,1,Gender,Men,,1,,Size,2XL,0,1,
,variation,funny-dancing-skeletons-happy-men-3xl,"Funny Dancing Skeletons Happy Hallothanksmas Shirt, Fall Pumpkin Thanksigiving Halloween Party Shirts, Holiday Merry Christmas T Shirts",1,0,visible,,,,,taxable,parent,1,1000,,,0,,,,,1,,,100,,"shirt,t-shirt",,,,,funny-dancing-skeletons-happy,,,,,,1,Gender,Men,,1,,Size,3XL,0,1,
,variable,halloween-shirt-fall-shirts,"Halloween Shirt, Fall Shirts, Pumpkin Shirt, Autumn Shirt, Thanksgiving Shirt, Fall Clothing, Shirts For Women, Hey There Pumpkin Shirt",1,0,visible,,"This is content",,,taxable,,1,1000,,0,0,,,,,1,,,100,Men>T-Shirts,"shirt,t-shirt",,"https://i.etsystatic.com/25056868/r/il/3c6352/4173979845/il_fullxfull.4173979845_15jv.jpg,https://i.etsystatic.com/25056868/r/il/8bd401/4099763502/il_fullxfull.4099763502_nupv.jpg,https://i.etsystatic.com/25056868/r/il/6de1c9/4099763592/il_fullxfull.4099763592_fdkl.jpg,https://i.etsystatic.com/25056868/r/il/06a9ea/4099763612/il_fullxfull.4099763612_9bcv.jpg,https://i.etsystatic.com/25056868/r/il/b8ebb2/4147417383/il_fullxfull.4147417383_pcqc.jpg,https://i.etsystatic.com/25056868/r/il/1e0ec2/4147417401/il_fullxfull.4147417401_13e8.jpg",,,,,,,,,0,Gender,"Men,Women",0,1,Men,Size,"S,M,L,XL,2XL,3XL",0,1,S,,,,,
,variation,halloween-shirt-fall-shirts-men-s,"Halloween Shirt, Fall Shirts, Pumpkin Shirt, Autumn Shirt, Thanksgiving Shirt, Fall Clothing, Shirts For Women, Hey There Pumpkin Shirt",1,0,visible,,,,,taxable,parent,1,1000,,,0,,,,,1,,,100,,"shirt,t-shirt",,,,,halloween-shirt-fall-shirts,,,,,,1,Gender,Men,,1,,Size,S,0,1,
,variation,halloween-shirt-fall-shirts-women-s,"Halloween Shirt, Fall Shirts, Pumpkin Shirt, Autumn Shirt, Thanksgiving Shirt, Fall Clothing, Shirts For Women, Hey There Pumpkin Shirt",1,0,visible,,,,,taxable,parent,1,1000,,,0,,,,,1,,,100,,"shirt,t-shirt",,,,,halloween-shirt-fall-shirts,,,,,,1,Gender,Women,,1,,Size,S,0,1,
,variation,halloween-shirt-fall-shirts-men-m,"Halloween Shirt, Fall Shirts, Pumpkin Shirt, Autumn Shirt, Thanksgiving Shirt, Fall Clothing, Shirts For Women, Hey There Pumpkin Shirt",1,0,visible,,,,,taxable,parent,1,1000,,,0,,,,,1,,,100,,"shirt,t-shirt",,,,,halloween-shirt-fall-shirts,,,,,,1,Gender,Men,,1,,Size,M,0,1,
,variation,halloween-shirt-fall-shirts-women-m,"Halloween Shirt, Fall Shirts, Pumpkin Shirt, Autumn Shirt, Thanksgiving Shirt, Fall Clothing, Shirts For Women, Hey There Pumpkin Shirt",1,0,visible,,,,,taxable,parent,1,1000,,,0,,,,,1,,,100,,"shirt,t-shirt",,,,,halloween-shirt-fall-shirts,,,,,,1,Gender,Women,,1,,Size,M,0,1,
,variation,halloween-shirt-fall-shirts-men-l,"Halloween Shirt, Fall Shirts, Pumpkin Shirt, Autumn Shirt, Thanksgiving Shirt, Fall Clothing, Shirts For Women, Hey There Pumpkin Shirt",1,0,visible,,,,,taxable,parent,1,1000,,,0,,,,,1,,,100,,"shirt,t-shirt",,,,,halloween-shirt-fall-shirts,,,,,,1,Gender,Men,,1,,Size,L,0,1,
,variation,halloween-shirt-fall-shirts-women-l,"Halloween Shirt, Fall Shirts, Pumpkin Shirt, Autumn Shirt, Thanksgiving Shirt, Fall Clothing, Shirts For Women, Hey There Pumpkin Shirt",1,0,visible,,,,,taxable,parent,1,1000,,,0,,,,,1,,,100,,"shirt,t-shirt",,,,,halloween-shirt-fall-shirts,,,,,,1,Gender,Women,,1,,Size,L,0,1,
,variation,halloween-shirt-fall-shirts-men-xl,"Halloween Shirt, Fall Shirts, Pumpkin Shirt, Autumn Shirt, Thanksgiving Shirt, Fall Clothing, Shirts For Women, Hey There Pumpkin Shirt",1,0,visible,,,,,taxable,parent,1,1000,,,0,,,,,1,,,100,,"shirt,t-shirt",,,,,halloween-shirt-fall-shirts,,,,,,1,Gender,Men,,1,,Size,XL,0,1,
,variation,halloween-shirt-fall-shirts-men-2xl,"Halloween Shirt, Fall Shirts, Pumpkin Shirt, Autumn Shirt, Thanksgiving Shirt, Fall Clothing, Shirts For Women, Hey There Pumpkin Shirt",1,0,visible,,,,,taxable,parent,1,1000,,,0,,,,,1,,,100,,"shirt,t-shirt",,,,,halloween-shirt-fall-shirts,,,,,,1,Gender,Men,,1,,Size,2XL,0,1,
,variation,halloween-shirt-fall-shirts-men-3xl,"Halloween Shirt, Fall Shirts, Pumpkin Shirt, Autumn Shirt, Thanksgiving Shirt, Fall Clothing, Shirts For Women, Hey There Pumpkin Shirt",1,0,visible,,,,,taxable,parent,1,1000,,,0,,,,,1,,,100,,"shirt,t-shirt",,,,,halloween-shirt-fall-shirts,,,,,,1,Gender,Men,,1,,Size,3XL,0,1,
,variable,its-fall-yall-shirt,"Its Fall Yall Shirt, Fall Shirts, Autumun Shirt, Thanksgiving Shirt, Halloween Shirt, Pumpkin Tshirt, Cute Fall Graphic T-Shirt",1,0,visible,,"This is content",,,taxable,,1,1000,,0,0,,,,,1,,,100,Men>T-Shirts,"shirt,t-shirt",,"https://i.etsystatic.com/25056868/r/il/e1c76d/3373637019/il_fullxfull.3373637019_eo50.jpg,https://i.etsystatic.com/25056868/r/il/819b7e/3325940452/il_fullxfull.3325940452_m24t.jpg,https://i.etsystatic.com/25056868/r/il/5b2999/3373635937/il_fullxfull.3373635937_k63p.jpg,https://i.etsystatic.com/25056868/r/il/d1fc01/3325938758/il_fullxfull.3325938758_rht3.jpg,https://i.etsystatic.com/25056868/r/il/d6ee85/3373635945/il_fullxfull.3373635945_mt4g.jpg,https://i.etsystatic.com/25056868/r/il/7b1b38/3325938764/il_fullxfull.3325938764_7u30.jpg",,,,,,,,,0,Gender,"Men,Women",0,1,Men,Size,"S,M,L,XL,2XL,3XL",0,1,S,,,,,
,variation,its-fall-yall-shirt-men-s,"Its Fall Yall Shirt, Fall Shirts, Autumun Shirt, Thanksgiving Shirt, Halloween Shirt, Pumpkin Tshirt, Cute Fall Graphic T-Shirt",1,0,visible,,,,,taxable,parent,1,1000,,,0,,,,,1,,,100,,"shirt,t-shirt",,,,,its-fall-yall-shirt,,,,,,1,Gender,Men,,1,,Size,S,0,1,
,variation,its-fall-yall-shirt-women-s,"Its Fall Yall Shirt, Fall Shirts, Autumun Shirt, Thanksgiving Shirt, Halloween Shirt, Pumpkin Tshirt, Cute Fall Graphic T-Shirt",1,0,visible,,,,,taxable,parent,1,1000,,,0,,,,,1,,,100,,"shirt,t-shirt",,,,,its-fall-yall-shirt,,,,,,1,Gender,Women,,1,,Size,S,0,1,
,variation,its-fall-yall-shirt-men-m,"Its Fall Yall Shirt, Fall Shirts, Autumun Shirt, Thanksgiving Shirt, Halloween Shirt, Pumpkin Tshirt, Cute Fall Graphic T-Shirt",1,0,visible,,,,,taxable,parent,1,1000,,,0,,,,,1,,,100,,"shirt,t-shirt",,,,,its-fall-yall-shirt,,,,,,1,Gender,Men,,1,,Size,M,0,1,
,variation,its-fall-yall-shirt-women-m,"Its Fall Yall Shirt, Fall Shirts, Autumun Shirt, Thanksgiving Shirt, Halloween Shirt, Pumpkin Tshirt, Cute Fall Graphic T-Shirt",1,0,visible,,,,,taxable,parent,1,1000,,,0,,,,,1,,,100,,"shirt,t-shirt",,,,,its-fall-yall-shirt,,,,,,1,Gender,Women,,1,,Size,M,0,1,
,variation,its-fall-yall-shirt-men-l,"Its Fall Yall Shirt, Fall Shirts, Autumun Shirt, Thanksgiving Shirt, Halloween Shirt, Pumpkin Tshirt, Cute Fall Graphic T-Shirt",1,0,visible,,,,,taxable,parent,1,1000,,,0,,,,,1,,,100,,"shirt,t-shirt",,,,,its-fall-yall-shirt,,,,,,1,Gender,Men,,1,,Size,L,0,1,
,variation,its-fall-yall-shirt-women-l,"Its Fall Yall Shirt, Fall Shirts, Autumun Shirt, Thanksgiving Shirt, Halloween Shirt, Pumpkin Tshirt, Cute Fall Graphic T-Shirt",1,0,visible,,,,,taxable,parent,1,1000,,,0,,,,,1,,,100,,"shirt,t-shirt",,,,,its-fall-yall-shirt,,,,,,1,Gender,Women,,1,,Size,L,0,1,
,variation,its-fall-yall-shirt-men-xl,"Its Fall Yall Shirt, Fall Shirts, Autumun Shirt, Thanksgiving Shirt, Halloween Shirt, Pumpkin Tshirt, Cute Fall Graphic T-Shirt",1,0,visible,,,,,taxable,parent,1,1000,,,0,,,,,1,,,100,,"shirt,t-shirt",,,,,its-fall-yall-shirt,,,,,,1,Gender,Men,,1,,Size,XL,0,1,
,variation,its-fall-yall-shirt-men-2xl,"Its Fall Yall Shirt, Fall Shirts, Autumun Shirt, Thanksgiving Shirt, Halloween Shirt, Pumpkin Tshirt, Cute Fall Graphic T-Shirt",1,0,visible,,,,,taxable,parent,1,1000,,,0,,,,,1,,,100,,"shirt,t-shirt",,,,,its-fall-yall-shirt,,,,,,1,Gender,Men,,1,,Size,2XL,0,1,
,variation,its-fall-yall-shirt-men-3xl,"Its Fall Yall Shirt, Fall Shirts, Autumun Shirt, Thanksgiving Shirt, Halloween Shirt, Pumpkin Tshirt, Cute Fall Graphic T-Shirt",1,0,visible,,,,,taxable,parent,1,1000,,,0,,,,,1,,,100,,"shirt,t-shirt",,,,,its-fall-yall-shirt,,,,,,1,Gender,Men,,1,,Size,3XL,0,1,
,variable,cute-turkey-thankful-shirt,"Cute Turkey Thankful Shirt, Thanksgiving Shirt, Funny Turkey Shirt, Peace Turkey Shirt, Thankful Funny Shirt, Funny Family Thanksgiving Tee",1,0,visible,,"This is content",,,taxable,,1,1000,,0,0,,,,,1,,,100,Men>T-Shirts,"shirt,t-shirt",,"https://i.etsystatic.com/25056868/r/il/539f2e/4061326824/il_fullxfull.4061326824_oigc.jpg,https://i.etsystatic.com/25056868/r/il/5b092b/3425364550/il_fullxfull.3425364550_shyb.jpg,https://i.etsystatic.com/25056868/r/il/e5234f/3473042813/il_fullxfull.3473042813_7l6b.jpg,https://i.etsystatic.com/25056868/r/il/219dc2/3425364564/il_fullxfull.3425364564_83hf.jpg,https://i.etsystatic.com/25056868/r/il/f9122a/3425364560/il_fullxfull.3425364560_op3w.jpg,https://i.etsystatic.com/25056868/r/il/dcf71c/3425364548/il_fullxfull.3425364548_rmp4.jpg",,,,,,,,,0,Gender,"Men,Women",0,1,Men,Size,"S,M,L,XL,2XL,3XL",0,1,S,,,,,
,variation,cute-turkey-thankful-shirt-men-s,"Cute Turkey Thankful Shirt, Thanksgiving Shirt, Funny Turkey Shirt, Peace Turkey Shirt, Thankful Funny Shirt, Funny Family Thanksgiving Tee",1,0,visible,,,,,taxable,parent,1,1000,,,0,,,,,1,,,100,,"shirt,t-shirt",,,,,cute-turkey-thankful-shirt,,,,,,1,Gender,Men,,1,,Size,S,0,1,
,variation,cute-turkey-thankful-shirt-women-s,"Cute Turkey Thankful Shirt, Thanksgiving Shirt, Funny Turkey Shirt, Peace Turkey Shirt, Thankful Funny Shirt, Funny Family Thanksgiving Tee",1,0,visible,,,,,taxable,parent,1,1000,,,0,,,,,1,,,100,,"shirt,t-shirt",,,,,cute-turkey-thankful-shirt,,,,,,1,Gender,Women,,1,,Size,S,0,1,
,variation,cute-turkey-thankful-shirt-men-m,"Cute Turkey Thankful Shirt, Thanksgiving Shirt, Funny Turkey Shirt, Peace Turkey Shirt, Thankful Funny Shirt, Funny Family Thanksgiving Tee",1,0,visible,,,,,taxable,parent,1,1000,,,0,,,,,1,,,100,,"shirt,t-shirt",,,,,cute-turkey-thankful-shirt,,,,,,1,Gender,Men,,1,,Size,M,0,1,
,variation,cute-turkey-thankful-shirt-women-m,"Cute Turkey Thankful Shirt, Thanksgiving Shirt, Funny Turkey Shirt, Peace Turkey Shirt, Thankful Funny Shirt, Funny Family Thanksgiving Tee",1,0,visible,,,,,taxable,parent,1,1000,,,0,,,,,1,,,100,,"shirt,t-shirt",,,,,cute-turkey-thankful-shirt,,,,,,1,Gender,Women,,1,,Size,M,0,1,
,variation,cute-turkey-thankful-shirt-men-l,"Cute Turkey Thankful Shirt, Thanksgiving Shirt, Funny Turkey Shirt, Peace Turkey Shirt, Thankful Funny Shirt, Funny Family Thanksgiving Tee",1,0,visible,,,,,taxable,parent,1,1000,,,0,,,,,1,,,100,,"shirt,t-shirt",,,,,cute-turkey-thankful-shirt,,,,,,1,Gender,Men,,1,,Size,L,0,1,
,variation,cute-turkey-thankful-shirt-women-l,"Cute Turkey Thankful Shirt, Thanksgiving Shirt, Funny Turkey Shirt, Peace Turkey Shirt, Thankful Funny Shirt, Funny Family Thanksgiving Tee",1,0,visible,,,,,taxable,parent,1,1000,,,0,,,,,1,,,100,,"shirt,t-shirt",,,,,cute-turkey-thankful-shirt,,,,,,1,Gender,Women,,1,,Size,L,0,1,
,variation,cute-turkey-thankful-shirt-men-xl,"Cute Turkey Thankful Shirt, Thanksgiving Shirt, Funny Turkey Shirt, Peace Turkey Shirt, Thankful Funny Shirt, Funny Family Thanksgiving Tee",1,0,visible,,,,,taxable,parent,1,1000,,,0,,,,,1,,,100,,"shirt,t-shirt",,,,,cute-turkey-thankful-shirt,,,,,,1,Gender,Men,,1,,Size,XL,0,1,
,variation,cute-turkey-thankful-shirt-men-2xl,"Cute Turkey Thankful Shirt, Thanksgiving Shirt, Funny Turkey Shirt, Peace Turkey Shirt, Thankful Funny Shirt, Funny Family Thanksgiving Tee",1,0,visible,,,,,taxable,parent,1,1000,,,0,,,,,1,,,100,,"shirt,t-shirt",,,,,cute-turkey-thankful-shirt,,,,,,1,Gender,Men,,1,,Size,2XL,0,1,
,variation,cute-turkey-thankful-shirt-men-3xl,"Cute Turkey Thankful Shirt, Thanksgiving Shirt, Funny Turkey Shirt, Peace Turkey Shirt, Thankful Funny Shirt, Funny Family Thanksgiving Tee",1,0,visible,,,,,taxable,parent,1,1000,,,0,,,,,1,,,100,,"shirt,t-shirt",,,,,cute-turkey-thankful-shirt,,,,,,1,Gender,Men,,1,,Size,3XL,0,1,
,variable,thanksgiving-shirt-with-the,"Thanksgiving Shirt, With The Family Thanksgiving T-Shirt, Thanksgiving Dinner Tee, Fall Thanksgiving Family Shirt, Cute Women Fall Shirt",1,0,visible,,"This is content",,,taxable,,1,1000,,0,0,,,,,1,,,100,Men>T-Shirts,"shirt,t-shirt",,"https://i.etsystatic.com/25056868/r/il/b3a191/4712962172/il_fullxfull.4712962172_8qzn.jpg,https://i.etsystatic.com/25056868/r/il/944058/4381493717/il_fullxfull.4381493717_od24.jpg,https://i.etsystatic.com/25056868/r/il/7e5587/4381487465/il_fullxfull.4381487465_6uuj.jpg,https://i.etsystatic.com/25056868/r/il/2c88af/4381487469/il_fullxfull.4381487469_97am.jpg,https://i.etsystatic.com/25056868/r/il/ed3f36/4334093078/il_fullxfull.4334093078_579j.jpg,https://i.etsystatic.com/25056868/r/il/b43f44/4334093082/il_fullxfull.4334093082_ant2.jpg",,,,,,,,,0,Gender,"Men,Women",0,1,Men,Size,"S,M,L,XL,2XL,3XL",0,1,S,,,,,
,variation,thanksgiving-shirt-with-the-men-s,"Thanksgiving Shirt, With The Family Thanksgiving T-Shirt, Thanksgiving Dinner Tee, Fall Thanksgiving Family Shirt, Cute Women Fall Shirt",1,0,visible,,,,,taxable,parent,1,1000,,,0,,,,,1,,,100,,"shirt,t-shirt",,,,,thanksgiving-shirt-with-the,,,,,,1,Gender,Men,,1,,Size,S,0,1,
,variation,thanksgiving-shirt-with-the-women-s,"Thanksgiving Shirt, With The Family Thanksgiving T-Shirt, Thanksgiving Dinner Tee, Fall Thanksgiving Family Shirt, Cute Women Fall Shirt",1,0,visible,,,,,taxable,parent,1,1000,,,0,,,,,1,,,100,,"shirt,t-shirt",,,,,thanksgiving-shirt-with-the,,,,,,1,Gender,Women,,1,,Size,S,0,1,
,variation,thanksgiving-shirt-with-the-men-m,"Thanksgiving Shirt, With The Family Thanksgiving T-Shirt, Thanksgiving Dinner Tee, Fall Thanksgiving Family Shirt, Cute Women Fall Shirt",1,0,visible,,,,,taxable,parent,1,1000,,,0,,,,,1,,,100,,"shirt,t-shirt",,,,,thanksgiving-shirt-with-the,,,,,,1,Gender,Men,,1,,Size,M,0,1,
,variation,thanksgiving-shirt-with-the-women-m,"Thanksgiving Shirt, With The Family Thanksgiving T-Shirt, Thanksgiving Dinner Tee, Fall Thanksgiving Family Shirt, Cute Women Fall Shirt",1,0,visible,,,,,taxable,parent,1,1000,,,0,,,,,1,,,100,,"shirt,t-shirt",,,,,thanksgiving-shirt-with-the,,,,,,1,Gender,Women,,1,,Size,M,0,1,
,variation,thanksgiving-shirt-with-the-men-l,"Thanksgiving Shirt, With The Family Thanksgiving T-Shirt, Thanksgiving Dinner Tee, Fall Thanksgiving Family Shirt, Cute Women Fall Shirt",1,0,visible,,,,,taxable,parent,1,1000,,,0,,,,,1,,,100,,"shirt,t-shirt",,,,,thanksgiving-shirt-with-the,,,,,,1,Gender,Men,,1,,Size,L,0,1,
,variation,thanksgiving-shirt-with-the-women-l,"Thanksgiving Shirt, With The Family Thanksgiving T-Shirt, Thanksgiving Dinner Tee, Fall Thanksgiving Family Shirt, Cute Women Fall Shirt",1,0,visible,,,,,taxable,parent,1,1000,,,0,,,,,1,,,100,,"shirt,t-shirt",,,,,thanksgiving-shirt-with-the,,,,,,1,Gender,Women,,1,,Size,L,0,1,
,variation,thanksgiving-shirt-with-the-men-xl,"Thanksgiving Shirt, With The Family Thanksgiving T-Shirt, Thanksgiving Dinner Tee, Fall Thanksgiving Family Shirt, Cute Women Fall Shirt",1,0,visible,,,,,taxable,parent,1,1000,,,0,,,,,1,,,100,,"shirt,t-shirt",,,,,thanksgiving-shirt-with-the,,,,,,1,Gender,Men,,1,,Size,XL,0,1,
,variation,thanksgiving-shirt-with-the-men-2xl,"Thanksgiving Shirt, With The Family Thanksgiving T-Shirt, Thanksgiving Dinner Tee, Fall Thanksgiving Family Shirt, Cute Women Fall Shirt",1,0,visible,,,,,taxable,parent,1,1000,,,0,,,,,1,,,100,,"shirt,t-shirt",,,,,thanksgiving-shirt-with-the,,,,,,1,Gender,Men,,1,,Size,2XL,0,1,
,variation,thanksgiving-shirt-with-the-men-3xl,"Thanksgiving Shirt, With The Family Thanksgiving T-Shirt, Thanksgiving Dinner Tee, Fall Thanksgiving Family Shirt, Cute Women Fall Shirt",1,0,visible,,,,,taxable,parent,1,1000,,,0,,,,,1,,,100,,"shirt,t-shirt",,,,,thanksgiving-shirt-with-the,,,,,,1,Gender,Men,,1,,Size,3XL,0,1,
,variable,fall-is-my-favorite,"Fall Is My Favorite Color Shirt, Fall Shirt, Halloween Shirt, Autumn Shirt, Gift For Women, Floral Shirt, Shirts With Sayings",1,0,visible,,"This is content",,,taxable,,1,1000,,0,0,,,,,1,,,100,Men>T-Shirts,"shirt,t-shirt",,"https://i.etsystatic.com/25056868/r/il/04b6f6/4308312658/il_fullxfull.4308312658_9co8.jpg,https://i.etsystatic.com/25056868/r/il/dd8a5c/4020893990/il_fullxfull.4020893990_7mck.jpg,https://i.etsystatic.com/25056868/r/il/bc97db/3373617265/il_fullxfull.3373617265_1b35.jpg,https://i.etsystatic.com/25056868/r/il/cac3d2/3373617259/il_fullxfull.3373617259_shmy.jpg,https://i.etsystatic.com/25056868/r/il/6aa64a/3325919482/il_fullxfull.3325919482_ax50.jpg,https://i.etsystatic.com/25056868/r/il/47a0d5/3373617275/il_fullxfull.3373617275_n2ov.jpg",,,,,,,,,0,Gender,"Men,Women",0,1,Men,Size,"S,M,L,XL,2XL,3XL",0,1,S,,,,,
,variation,fall-is-my-favorite-men-s,"Fall Is My Favorite Color Shirt, Fall Shirt, Halloween Shirt, Autumn Shirt, Gift For Women, Floral Shirt, Shirts With Sayings",1,0,visible,,,,,taxable,parent,1,1000,,,0,,,,,1,,,100,,"shirt,t-shirt",,,,,fall-is-my-favorite,,,,,,1,Gender,Men,,1,,Size,S,0,1,
,variation,fall-is-my-favorite-women-s,"Fall Is My Favorite Color Shirt, Fall Shirt, Halloween Shirt, Autumn Shirt, Gift For Women, Floral Shirt, Shirts With Sayings",1,0,visible,,,,,taxable,parent,1,1000,,,0,,,,,1,,,100,,"shirt,t-shirt",,,,,fall-is-my-favorite,,,,,,1,Gender,Women,,1,,Size,S,0,1,
,variation,fall-is-my-favorite-men-m,"Fall Is My Favorite Color Shirt, Fall Shirt, Halloween Shirt, Autumn Shirt, Gift For Women, Floral Shirt, Shirts With Sayings",1,0,visible,,,,,taxable,parent,1,1000,,,0,,,,,1,,,100,,"shirt,t-shirt",,,,,fall-is-my-favorite,,,,,,1,Gender,Men,,1,,Size,M,0,1,
,variation,fall-is-my-favorite-women-m,"Fall Is My Favorite Color Shirt, Fall Shirt, Halloween Shirt, Autumn Shirt, Gift For Women, Floral Shirt, Shirts With Sayings",1,0,visible,,,,,taxable,parent,1,1000,,,0,,,,,1,,,100,,"shirt,t-shirt",,,,,fall-is-my-favorite,,,,,,1,Gender,Women,,1,,Size,M,0,1,
,variation,fall-is-my-favorite-men-l,"Fall Is My Favorite Color Shirt, Fall Shirt, Halloween Shirt, Autumn Shirt, Gift For Women, Floral Shirt, Shirts With Sayings",1,0,visible,,,,,taxable,parent,1,1000,,,0,,,,,1,,,100,,"shirt,t-shirt",,,,,fall-is-my-favorite,,,,,,1,Gender,Men,,1,,Size,L,0,1,
,variation,fall-is-my-favorite-women-l,"Fall Is My Favorite Color Shirt, Fall Shirt, Halloween Shirt, Autumn Shirt, Gift For Women, Floral Shirt, Shirts With Sayings",1,0,visible,,,,,taxable,parent,1,1000,,,0,,,,,1,,,100,,"shirt,t-shirt",,,,,fall-is-my-favorite,,,,,,1,Gender,Women,,1,,Size,L,0,1,
,variation,fall-is-my-favorite-men-xl,"Fall Is My Favorite Color Shirt, Fall Shirt, Halloween Shirt, Autumn Shirt, Gift For Women, Floral Shirt, Shirts With Sayings",1,0,visible,,,,,taxable,parent,1,1000,,,0,,,,,1,,,100,,"shirt,t-shirt",,,,,fall-is-my-favorite,,,,,,1,Gender,Men,,1,,Size,XL,0,1,
,variation,fall-is-my-favorite-men-2xl,"Fall Is My Favorite Color Shirt, Fall Shirt, Halloween Shirt, Autumn Shirt, Gift For Women, Floral Shirt, Shirts With Sayings",1,0,visible,,,,,taxable,parent,1,1000,,,0,,,,,1,,,100,,"shirt,t-shirt",,,,,fall-is-my-favorite,,,,,,1,Gender,Men,,1,,Size,2XL,0,1,
,variation,fall-is-my-favorite-men-3xl,"Fall Is My Favorite Color Shirt, Fall Shirt, Halloween Shirt, Autumn Shirt, Gift For Women, Floral Shirt, Shirts With Sayings",1,0,visible,,,,,taxable,parent,1,1000,,,0,,,,,1,,,100,,"shirt,t-shirt",,,,,fall-is-my-favorite,,,,,,1,Gender,Men,,1,,Size,3XL,0,1,
,variable,thanksgiving-shirt-thankful-mama,"Thanksgiving Shirt, Thankful Mama Shirt, Thankful Mom Shirt, Thanksgiving Gift, Mothers Day Shirt, Fall Shirt, Mama T-Shirt, Mama Life Tee",1,0,visible,,"This is content",,,taxable,,1,1000,,0,0,,,,,1,,,100,Men>T-Shirts,"shirt,t-shirt",,"https://i.etsystatic.com/25056868/r/il/967393/4064992364/il_fullxfull.4064992364_fh6s.jpg,https://i.etsystatic.com/25056868/r/il/fa59d5/3470632741/il_fullxfull.3470632741_lbnb.jpg,https://i.etsystatic.com/25056868/r/il/b0d6ff/3422960832/il_fullxfull.3422960832_ruda.jpg,https://i.etsystatic.com/25056868/r/il/4264d0/3470632729/il_fullxfull.3470632729_i484.jpg,https://i.etsystatic.com/25056868/r/il/3f3a10/3422960826/il_fullxfull.3422960826_9r2j.jpg,https://i.etsystatic.com/25056868/r/il/5ceb36/3422960838/il_fullxfull.3422960838_8ywc.jpg",,,,,,,,,0,Gender,"Men,Women",0,1,Men,Size,"S,M,L,XL,2XL,3XL",0,1,S,,,,,
,variation,thanksgiving-shirt-thankful-mama-men-s,"Thanksgiving Shirt, Thankful Mama Shirt, Thankful Mom Shirt, Thanksgiving Gift, Mothers Day Shirt, Fall Shirt, Mama T-Shirt, Mama Life Tee",1,0,visible,,,,,taxable,parent,1,1000,,,0,,,,,1,,,100,,"shirt,t-shirt",,,,,thanksgiving-shirt-thankful-mama,,,,,,1,Gender,Men,,1,,Size,S,0,1,
,variation,thanksgiving-shirt-thankful-mama-women-s,"Thanksgiving Shirt, Thankful Mama Shirt, Thankful Mom Shirt, Thanksgiving Gift, Mothers Day Shirt, Fall Shirt, Mama T-Shirt, Mama Life Tee",1,0,visible,,,,,taxable,parent,1,1000,,,0,,,,,1,,,100,,"shirt,t-shirt",,,,,thanksgiving-shirt-thankful-mama,,,,,,1,Gender,Women,,1,,Size,S,0,1,
,variation,thanksgiving-shirt-thankful-mama-men-m,"Thanksgiving Shirt, Thankful Mama Shirt, Thankful Mom Shirt, Thanksgiving Gift, Mothers Day Shirt, Fall Shirt, Mama T-Shirt, Mama Life Tee",1,0,visible,,,,,taxable,parent,1,1000,,,0,,,,,1,,,100,,"shirt,t-shirt",,,,,thanksgiving-shirt-thankful-mama,,,,,,1,Gender,Men,,1,,Size,M,0,1,
,variation,thanksgiving-shirt-thankful-mama-women-m,"Thanksgiving Shirt, Thankful Mama Shirt, Thankful Mom Shirt, Thanksgiving Gift, Mothers Day Shirt, Fall Shirt, Mama T-Shirt, Mama Life Tee",1,0,visible,,,,,taxable,parent,1,1000,,,0,,,,,1,,,100,,"shirt,t-shirt",,,,,thanksgiving-shirt-thankful-mama,,,,,,1,Gender,Women,,1,,Size,M,0,1,
,variation,thanksgiving-shirt-thankful-mama-men-l,"Thanksgiving Shirt, Thankful Mama Shirt, Thankful Mom Shirt, Thanksgiving Gift, Mothers Day Shirt, Fall Shirt, Mama T-Shirt, Mama Life Tee",1,0,visible,,,,,taxable,parent,1,1000,,,0,,,,,1,,,100,,"shirt,t-shirt",,,,,thanksgiving-shirt-thankful-mama,,,,,,1,Gender,Men,,1,,Size,L,0,1,
,variation,thanksgiving-shirt-thankful-mama-women-l,"Thanksgiving Shirt, Thankful Mama Shirt, Thankful Mom Shirt, Thanksgiving Gift, Mothers Day Shirt, Fall Shirt, Mama T-Shirt, Mama Life Tee",1,0,visible,,,,,taxable,parent,1,1000,,,0,,,,,1,,,100,,"shirt,t-shirt",,,,,thanksgiving-shirt-thankful-mama,,,,,,1,Gender,Women,,1,,Size,L,0,1,
,variation,thanksgiving-shirt-thankful-mama-men-xl,"Thanksgiving Shirt, Thankful Mama Shirt, Thankful Mom Shirt, Thanksgiving Gift, Mothers Day Shirt, Fall Shirt, Mama T-Shirt, Mama Life Tee",1,0,visible,,,,,taxable,parent,1,1000,,,0,,,,,1,,,100,,"shirt,t-shirt",,,,,thanksgiving-shirt-thankful-mama,,,,,,1,Gender,Men,,1,,Size,XL,0,1,
,variation,thanksgiving-shirt-thankful-mama-men-2xl,"Thanksgiving Shirt, Thankful Mama Shirt, Thankful Mom Shirt, Thanksgiving Gift, Mothers Day Shirt, Fall Shirt, Mama T-Shirt, Mama Life Tee",1,0,visible,,,,,taxable,parent,1,1000,,,0,,,,,1,,,100,,"shirt,t-shirt",,,,,thanksgiving-shirt-thankful-mama,,,,,,1,Gender,Men,,1,,Size,2XL,0,1,
,variation,thanksgiving-shirt-thankful-mama-men-3xl,"Thanksgiving Shirt, Thankful Mama Shirt, Thankful Mom Shirt, Thanksgiving Gift, Mothers Day Shirt, Fall Shirt, Mama T-Shirt, Mama Life Tee",1,0,visible,,,,,taxable,parent,1,1000,,,0,,,,,1,,,100,,"shirt,t-shirt",,,,,thanksgiving-shirt-thankful-mama,,,,,,1,Gender,Men,,1,,Size,3XL,0,1,
,variable,one-thankful-mama-shirt,"One Thankful Mama Shirt, Mothers Day Shirt, Thankful Mom Shirt, Thanksgiving Shirt, Fall Shirt, Mama TShirt, Mama Life T-Shirt, Mom Gifts",1,0,visible,,"This is content",,,taxable,,1,1000,,0,0,,,,,1,,,100,Men>T-Shirts,"shirt,t-shirt",,"https://i.etsystatic.com/25056868/r/il/158062/4108965479/il_fullxfull.4108965479_qre0.jpg,https://i.etsystatic.com/25056868/r/il/bab783/3375121333/il_fullxfull.3375121333_qqfa.jpg,https://i.etsystatic.com/25056868/r/il/46a2a6/3375121335/il_fullxfull.3375121335_fx42.jpg,https://i.etsystatic.com/25056868/r/il/7e2bcb/3327424486/il_fullxfull.3327424486_r0gv.jpg,https://i.etsystatic.com/25056868/r/il/a1a219/3375121337/il_fullxfull.3375121337_2kge.jpg,https://i.etsystatic.com/25056868/r/il/2968cd/3375121339/il_fullxfull.3375121339_otdm.jpg",,,,,,,,,0,Gender,"Men,Women",0,1,Men,Size,"S,M,L,XL,2XL,3XL",0,1,S,,,,,
,variation,one-thankful-mama-shirt-men-s,"One Thankful Mama Shirt, Mothers Day Shirt, Thankful Mom Shirt, Thanksgiving Shirt, Fall Shirt, Mama TShirt, Mama Life T-Shirt, Mom Gifts",1,0,visible,,,,,taxable,parent,1,1000,,,0,,,,,1,,,100,,"shirt,t-shirt",,,,,one-thankful-mama-shirt,,,,,,1,Gender,Men,,1,,Size,S,0,1,
,variation,one-thankful-mama-shirt-women-s,"One Thankful Mama Shirt, Mothers Day Shirt, Thankful Mom Shirt, Thanksgiving Shirt, Fall Shirt, Mama TShirt, Mama Life T-Shirt, Mom Gifts",1,0,visible,,,,,taxable,parent,1,1000,,,0,,,,,1,,,100,,"shirt,t-shirt",,,,,one-thankful-mama-shirt,,,,,,1,Gender,Women,,1,,Size,S,0,1,
,variation,one-thankful-mama-shirt-men-m,"One Thankful Mama Shirt, Mothers Day Shirt, Thankful Mom Shirt, Thanksgiving Shirt, Fall Shirt, Mama TShirt, Mama Life T-Shirt, Mom Gifts",1,0,visible,,,,,taxable,parent,1,1000,,,0,,,,,1,,,100,,"shirt,t-shirt",,,,,one-thankful-mama-shirt,,,,,,1,Gender,Men,,1,,Size,M,0,1,
,variation,one-thankful-mama-shirt-women-m,"One Thankful Mama Shirt, Mothers Day Shirt, Thankful Mom Shirt, Thanksgiving Shirt, Fall Shirt, Mama TShirt, Mama Life T-Shirt, Mom Gifts",1,0,visible,,,,,taxable,parent,1,1000,,,0,,,,,1,,,100,,"shirt,t-shirt",,,,,one-thankful-mama-shirt,,,,,,1,Gender,Women,,1,,Size,M,0,1,
,variation,one-thankful-mama-shirt-men-l,"One Thankful Mama Shirt, Mothers Day Shirt, Thankful Mom Shirt, Thanksgiving Shirt, Fall Shirt, Mama TShirt, Mama Life T-Shirt, Mom Gifts",1,0,visible,,,,,taxable,parent,1,1000,,,0,,,,,1,,,100,,"shirt,t-shirt",,,,,one-thankful-mama-shirt,,,,,,1,Gender,Men,,1,,Size,L,0,1,
,variation,one-thankful-mama-shirt-women-l,"One Thankful Mama Shirt, Mothers Day Shirt, Thankful Mom Shirt, Thanksgiving Shirt, Fall Shirt, Mama TShirt, Mama Life T-Shirt, Mom Gifts",1,0,visible,,,,,taxable,parent,1,1000,,,0,,,,,1,,,100,,"shirt,t-shirt",,,,,one-thankful-mama-shirt,,,,,,1,Gender,Women,,1,,Size,L,0,1,
,variation,one-thankful-mama-shirt-men-xl,"One Thankful Mama Shirt, Mothers Day Shirt, Thankful Mom Shirt, Thanksgiving Shirt, Fall Shirt, Mama TShirt, Mama Life T-Shirt, Mom Gifts",1,0,visible,,,,,taxable,parent,1,1000,,,0,,,,,1,,,100,,"shirt,t-shirt",,,,,one-thankful-mama-shirt,,,,,,1,Gender,Men,,1,,Size,XL,0,1,
,variation,one-thankful-mama-shirt-men-2xl,"One Thankful Mama Shirt, Mothers Day Shirt, Thankful Mom Shirt, Thanksgiving Shirt, Fall Shirt, Mama TShirt, Mama Life T-Shirt, Mom Gifts",1,0,visible,,,,,taxable,parent,1,1000,,,0,,,,,1,,,100,,"shirt,t-shirt",,,,,one-thankful-mama-shirt,,,,,,1,Gender,Men,,1,,Size,2XL,0,1,
,variation,one-thankful-mama-shirt-men-3xl,"One Thankful Mama Shirt, Mothers Day Shirt, Thankful Mom Shirt, Thanksgiving Shirt, Fall Shirt, Mama TShirt, Mama Life T-Shirt, Mom Gifts",1,0,visible,,,,,taxable,parent,1,1000,,,0,,,,,1,,,100,,"shirt,t-shirt",,,,,one-thankful-mama-shirt,,,,,,1,Gender,Men,,1,,Size,3XL,0,1,
,variable,fall-for-jesus-he,"Fall For Jesus He Never Leaves Shirt, Fall Shirt, Thanksgiving Family Matching Shirt, Thanksgiving Shirt, Thanksgiving Dinner, Jesus Shirt",1,0,visible,,"This is content",,,taxable,,1,1000,,0,0,,,,,1,,,100,Men>T-Shirts,"shirt,t-shirt",,"https://i.etsystatic.com/25056868/r/il/8d4de9/4061330232/il_fullxfull.4061330232_99vh.jpg,https://i.etsystatic.com/25056868/r/il/8c2ea5/3427500850/il_fullxfull.3427500850_1f67.jpg,https://i.etsystatic.com/25056868/r/il/552aa6/3427501296/il_fullxfull.3427501296_2bhp.jpg,https://i.etsystatic.com/25056868/r/il/87352b/3475174667/il_fullxfull.3475174667_igni.jpg,https://i.etsystatic.com/25056868/r/il/4ae8d5/3475175137/il_fullxfull.3475175137_2ku6.jpg,https://i.etsystatic.com/25056868/r/il/51e583/3475175141/il_fullxfull.3475175141_dshc.jpg",,,,,,,,,0,Gender,"Men,Women",0,1,Men,Size,"S,M,L,XL,2XL,3XL",0,1,S,,,,,
,variation,fall-for-jesus-he-men-s,"Fall For Jesus He Never Leaves Shirt, Fall Shirt, Thanksgiving Family Matching Shirt, Thanksgiving Shirt, Thanksgiving Dinner, Jesus Shirt",1,0,visible,,,,,taxable,parent,1,1000,,,0,,,,,1,,,100,,"shirt,t-shirt",,,,,fall-for-jesus-he,,,,,,1,Gender,Men,,1,,Size,S,0,1,
,variation,fall-for-jesus-he-women-s,"Fall For Jesus He Never Leaves Shirt, Fall Shirt, Thanksgiving Family Matching Shirt, Thanksgiving Shirt, Thanksgiving Dinner, Jesus Shirt",1,0,visible,,,,,taxable,parent,1,1000,,,0,,,,,1,,,100,,"shirt,t-shirt",,,,,fall-for-jesus-he,,,,,,1,Gender,Women,,1,,Size,S,0,1,
,variation,fall-for-jesus-he-men-m,"Fall For Jesus He Never Leaves Shirt, Fall Shirt, Thanksgiving Family Matching Shirt, Thanksgiving Shirt, Thanksgiving Dinner, Jesus Shirt",1,0,visible,,,,,taxable,parent,1,1000,,,0,,,,,1,,,100,,"shirt,t-shirt",,,,,fall-for-jesus-he,,,,,,1,Gender,Men,,1,,Size,M,0,1,
,variation,fall-for-jesus-he-women-m,"Fall For Jesus He Never Leaves Shirt, Fall Shirt, Thanksgiving Family Matching Shirt, Thanksgiving Shirt, Thanksgiving Dinner, Jesus Shirt",1,0,visible,,,,,taxable,parent,1,1000,,,0,,,,,1,,,100,,"shirt,t-shirt",,,,,fall-for-jesus-he,,,,,,1,Gender,Women,,1,,Size,M,0,1,
,variation,fall-for-jesus-he-men-l,"Fall For Jesus He Never Leaves Shirt, Fall Shirt, Thanksgiving Family Matching Shirt, Thanksgiving Shirt, Thanksgiving Dinner, Jesus Shirt",1,0,visible,,,,,taxable,parent,1,1000,,,0,,,,,1,,,100,,"shirt,t-shirt",,,,,fall-for-jesus-he,,,,,,1,Gender,Men,,1,,Size,L,0,1,
,variation,fall-for-jesus-he-women-l,"Fall For Jesus He Never Leaves Shirt, Fall Shirt, Thanksgiving Family Matching Shirt, Thanksgiving Shirt, Thanksgiving Dinner, Jesus Shirt",1,0,visible,,,,,taxable,parent,1,1000,,,0,,,,,1,,,100,,"shirt,t-shirt",,,,,fall-for-jesus-he,,,,,,1,Gender,Women,,1,,Size,L,0,1,
,variation,fall-for-jesus-he-men-xl,"Fall For Jesus He Never Leaves Shirt, Fall Shirt, Thanksgiving Family Matching Shirt, Thanksgiving Shirt, Thanksgiving Dinner, Jesus Shirt",1,0,visible,,,,,taxable,parent,1,1000,,,0,,,,,1,,,100,,"shirt,t-shirt",,,,,fall-for-jesus-he,,,,,,1,Gender,Men,,1,,Size,XL,0,1,
,variation,fall-for-jesus-he-men-2xl,"Fall For Jesus He Never Leaves Shirt, Fall Shirt, Thanksgiving Family Matching Shirt, Thanksgiving Shirt, Thanksgiving Dinner, Jesus Shirt",1,0,visible,,,,,taxable,parent,1,1000,,,0,,,,,1,,,100,,"shirt,t-shirt",,,,,fall-for-jesus-he,,,,,,1,Gender,Men,,1,,Size,2XL,0,1,
,variation,fall-for-jesus-he-men-3xl,"Fall For Jesus He Never Leaves Shirt, Fall Shirt, Thanksgiving Family Matching Shirt, Thanksgiving Shirt, Thanksgiving Dinner, Jesus Shirt",1,0,visible,,,,,taxable,parent,1,1000,,,0,,,,,1,,,100,,"shirt,t-shirt",,,,,fall-for-jesus-he,,,,,,1,Gender,Men,,1,,Size,3XL,0,1,
,variable,vintage-t-shirt-country,"Vintage T Shirt, Country Shirt, Western Shirt, Boho Shirt, Retro Country Shirt, Funny Shirt, Texas Shirt, Shirts For Women, Gifts For Her",1,0,visible,,"This is content",,,taxable,,1,1000,,0,0,,,,,1,,,100,Men>T-Shirts,"shirt,t-shirt",,"https://i.etsystatic.com/25056868/r/il/6d8276/4356364901/il_fullxfull.4356364901_mnvb.jpg,https://i.etsystatic.com/25056868/r/il/0e4926/4074165778/il_fullxfull.4074165778_ey39.jpg,https://i.etsystatic.com/25056868/r/il/32ad77/4308939000/il_fullxfull.4308939000_kkhs.jpg,https://i.etsystatic.com/25056868/r/il/ce5891/4073916454/il_fullxfull.4073916454_jnsf.jpg,https://i.etsystatic.com/25056868/r/il/741dac/4121560539/il_fullxfull.4121560539_fawr.jpg,https://i.etsystatic.com/25056868/r/il/8e47f6/4121560575/il_fullxfull.4121560575_2qih.jpg",,,,,,,,,0,Gender,"Men,Women",0,1,Men,Size,"S,M,L,XL,2XL,3XL",0,1,S,,,,,
,variation,vintage-t-shirt-country-men-s,"Vintage T Shirt, Country Shirt, Western Shirt, Boho Shirt, Retro Country Shirt, Funny Shirt, Texas Shirt, Shirts For Women, Gifts For Her",1,0,visible,,,,,taxable,parent,1,1000,,,0,,,,,1,,,100,,"shirt,t-shirt",,,,,vintage-t-shirt-country,,,,,,1,Gender,Men,,1,,Size,S,0,1,
,variation,vintage-t-shirt-country-women-s,"Vintage T Shirt, Country Shirt, Western Shirt, Boho Shirt, Retro Country Shirt, Funny Shirt, Texas Shirt, Shirts For Women, Gifts For Her",1,0,visible,,,,,taxable,parent,1,1000,,,0,,,,,1,,,100,,"shirt,t-shirt",,,,,vintage-t-shirt-country,,,,,,1,Gender,Women,,1,,Size,S,0,1,
,variation,vintage-t-shirt-country-men-m,"Vintage T Shirt, Country Shirt, Western Shirt, Boho Shirt, Retro Country Shirt, Funny Shirt, Texas Shirt, Shirts For Women, Gifts For Her",1,0,visible,,,,,taxable,parent,1,1000,,,0,,,,,1,,,100,,"shirt,t-shirt",,,,,vintage-t-shirt-country,,,,,,1,Gender,Men,,1,,Size,M,0,1,
,variation,vintage-t-shirt-country-women-m,"Vintage T Shirt, Country Shirt, Western Shirt, Boho Shirt, Retro Country Shirt, Funny Shirt, Texas Shirt, Shirts For Women, Gifts For Her",1,0,visible,,,,,taxable,parent,1,1000,,,0,,,,,1,,,100,,"shirt,t-shirt",,,,,vintage-t-shirt-country,,,,,,1,Gender,Women,,1,,Size,M,0,1,
,variation,vintage-t-shirt-country-men-l,"Vintage T Shirt, Country Shirt, Western Shirt, Boho Shirt, Retro Country Shirt, Funny Shirt, Texas Shirt, Shirts For Women, Gifts For Her",1,0,visible,,,,,taxable,parent,1,1000,,,0,,,,,1,,,100,,"shirt,t-shirt",,,,,vintage-t-shirt-country,,,,,,1,Gender,Men,,1,,Size,L,0,1,
,variation,vintage-t-shirt-country-women-l,"Vintage T Shirt, Country Shirt, Western Shirt, Boho Shirt, Retro Country Shirt, Funny Shirt, Texas Shirt, Shirts For Women, Gifts For Her",1,0,visible,,,,,taxable,parent,1,1000,,,0,,,,,1,,,100,,"shirt,t-shirt",,,,,vintage-t-shirt-country,,,,,,1,Gender,Women,,1,,Size,L,0,1,
,variation,vintage-t-shirt-country-men-xl,"Vintage T Shirt, Country Shirt, Western Shirt, Boho Shirt, Retro Country Shirt, Funny Shirt, Texas Shirt, Shirts For Women, Gifts For Her",1,0,visible,,,,,taxable,parent,1,1000,,,0,,,,,1,,,100,,"shirt,t-shirt",,,,,vintage-t-shirt-country,,,,,,1,Gender,Men,,1,,Size,XL,0,1,
,variation,vintage-t-shirt-country-men-2xl,"Vintage T Shirt, Country Shirt, Western Shirt, Boho Shirt, Retro Country Shirt, Funny Shirt, Texas Shirt, Shirts For Women, Gifts For Her",1,0,visible,,,,,taxable,parent,1,1000,,,0,,,,,1,,,100,,"shirt,t-shirt",,,,,vintage-t-shirt-country,,,,,,1,Gender,Men,,1,,Size,2XL,0,1,
,variation,vintage-t-shirt-country-men-3xl,"Vintage T Shirt, Country Shirt, Western Shirt, Boho Shirt, Retro Country Shirt, Funny Shirt, Texas Shirt, Shirts For Women, Gifts For Her",1,0,visible,,,,,taxable,parent,1,1000,,,0,,,,,1,,,100,,"shirt,t-shirt",,,,,vintage-t-shirt-country,,,,,,1,Gender,Men,,1,,Size,3XL,0,1,
,variable,funny-thanksgiving-t-shirt,"Funny Thanksgiving T-Shirt, Cute Turkey Fall Thanksgiving Shirt, Little Turkey Shirt, Turkey Face Shirts, Family Matching Thanksgiving Shirt",1,0,visible,,"This is content",,,taxable,,1,1000,,0,0,,,,,1,,,100,Men>T-Shirts,"shirt,t-shirt",,"https://i.etsystatic.com/25056868/r/il/2a85bd/4074770038/il_fullxfull.4074770038_qrnx.jpg,https://i.etsystatic.com/25056868/r/il/c30496/3474943253/il_fullxfull.3474943253_nccu.jpg,https://i.etsystatic.com/25056868/r/il/5971ac/3474943255/il_fullxfull.3474943255_n3d8.jpg,https://i.etsystatic.com/25056868/r/il/1c3920/3427269882/il_fullxfull.3427269882_mxh0.jpg,https://i.etsystatic.com/25056868/r/il/b33ce3/3427269880/il_fullxfull.3427269880_tu1v.jpg,https://i.etsystatic.com/25056868/r/il/d2897c/3427269890/il_fullxfull.3427269890_l38f.jpg",,,,,,,,,0,Gender,"Men,Women",0,1,Men,Size,"S,M,L,XL,2XL,3XL",0,1,S,,,,,
,variation,funny-thanksgiving-t-shirt-men-s,"Funny Thanksgiving T-Shirt, Cute Turkey Fall Thanksgiving Shirt, Little Turkey Shirt, Turkey Face Shirts, Family Matching Thanksgiving Shirt",1,0,visible,,,,,taxable,parent,1,1000,,,0,,,,,1,,,100,,"shirt,t-shirt",,,,,funny-thanksgiving-t-shirt,,,,,,1,Gender,Men,,1,,Size,S,0,1,
,variation,funny-thanksgiving-t-shirt-women-s,"Funny Thanksgiving T-Shirt, Cute Turkey Fall Thanksgiving Shirt, Little Turkey Shirt, Turkey Face Shirts, Family Matching Thanksgiving Shirt",1,0,visible,,,,,taxable,parent,1,1000,,,0,,,,,1,,,100,,"shirt,t-shirt",,,,,funny-thanksgiving-t-shirt,,,,,,1,Gender,Women,,1,,Size,S,0,1,
,variation,funny-thanksgiving-t-shirt-men-m,"Funny Thanksgiving T-Shirt, Cute Turkey Fall Thanksgiving Shirt, Little Turkey Shirt, Turkey Face Shirts, Family Matching Thanksgiving Shirt",1,0,visible,,,,,taxable,parent,1,1000,,,0,,,,,1,,,100,,"shirt,t-shirt",,,,,funny-thanksgiving-t-shirt,,,,,,1,Gender,Men,,1,,Size,M,0,1,
,variation,funny-thanksgiving-t-shirt-women-m,"Funny Thanksgiving T-Shirt, Cute Turkey Fall Thanksgiving Shirt, Little Turkey Shirt, Turkey Face Shirts, Family Matching Thanksgiving Shirt",1,0,visible,,,,,taxable,parent,1,1000,,,0,,,,,1,,,100,,"shirt,t-shirt",,,,,funny-thanksgiving-t-shirt,,,,,,1,Gender,Women,,1,,Size,M,0,1,
,variation,funny-thanksgiving-t-shirt-men-l,"Funny Thanksgiving T-Shirt, Cute Turkey Fall Thanksgiving Shirt, Little Turkey Shirt, Turkey Face Shirts, Family Matching Thanksgiving Shirt",1,0,visible,,,,,taxable,parent,1,1000,,,0,,,,,1,,,100,,"shirt,t-shirt",,,,,funny-thanksgiving-t-shirt,,,,,,1,Gender,Men,,1,,Size,L,0,1,
,variation,funny-thanksgiving-t-shirt-women-l,"Funny Thanksgiving T-Shirt, Cute Turkey Fall Thanksgiving Shirt, Little Turkey Shirt, Turkey Face Shirts, Family Matching Thanksgiving Shirt",1,0,visible,,,,,taxable,parent,1,1000,,,0,,,,,1,,,100,,"shirt,t-shirt",,,,,funny-thanksgiving-t-shirt,,,,,,1,Gender,Women,,1,,Size,L,0,1,
,variation,funny-thanksgiving-t-shirt-men-xl,"Funny Thanksgiving T-Shirt, Cute Turkey Fall Thanksgiving Shirt, Little Turkey Shirt, Turkey Face Shirts, Family Matching Thanksgiving Shirt",1,0,visible,,,,,taxable,parent,1,1000,,,0,,,,,1,,,100,,"shirt,t-shirt",,,,,funny-thanksgiving-t-shirt,,,,,,1,Gender,Men,,1,,Size,XL,0,1,
,variation,funny-thanksgiving-t-shirt-men-2xl,"Funny Thanksgiving T-Shirt, Cute Turkey Fall Thanksgiving Shirt, Little Turkey Shirt, Turkey Face Shirts, Family Matching Thanksgiving Shirt",1,0,visible,,,,,taxable,parent,1,1000,,,0,,,,,1,,,100,,"shirt,t-shirt",,,,,funny-thanksgiving-t-shirt,,,,,,1,Gender,Men,,1,,Size,2XL,0,1,
,variation,funny-thanksgiving-t-shirt-men-3xl,"Funny Thanksgiving T-Shirt, Cute Turkey Fall Thanksgiving Shirt, Little Turkey Shirt, Turkey Face Shirts, Family Matching Thanksgiving Shirt",1,0,visible,,,,,taxable,parent,1,1000,,,0,,,,,1,,,100,,"shirt,t-shirt",,,,,funny-thanksgiving-t-shirt,,,,,,1,Gender,Men,,1,,Size,3XL,0,1,
